<?xml version="1.0" encoding="UTF-8" standalone="no"?>
<!-- Created with Inkscape (http://www.inkscape.org/) -->

<svg
   width="66.522141mm"
   height="79.388496mm"
   viewBox="0 0 66.522141 79.388496"
   version="1.1"
   id="svg137803"
   sodipodi:docname="vialarstyle.svg"
   inkscape:version="1.1.2 (0a00cf5339, 2022-02-04, custom)"
   inkscape:export-filename="/home/rno/SociétéDuJeu/hmmmm.png"
   inkscape:export-xdpi="200"
   inkscape:export-ydpi="200"
   xmlns:inkscape="http://www.inkscape.org/namespaces/inkscape"
   xmlns:sodipodi="http://sodipodi.sourceforge.net/DTD/sodipodi-0.dtd"
   xmlns="http://www.w3.org/2000/svg"
   xmlns:svg="http://www.w3.org/2000/svg">
  <sodipodi:namedview
     id="namedview137805"
     pagecolor="#ffffff"
     bordercolor="#111111"
     borderopacity="1"
     inkscape:pageshadow="0"
     inkscape:pageopacity="0"
     inkscape:pagecheckerboard="1"
     inkscape:document-units="mm"
     showgrid="false"
     inkscape:zoom="1.005178"
     inkscape:cx="-159.67321"
     inkscape:cy="150.22215"
     inkscape:window-width="1850"
     inkscape:window-height="975"
     inkscape:window-x="30"
     inkscape:window-y="65"
     inkscape:window-maximized="1"
     inkscape:current-layer="layer1"
     width="90mm"
     fit-margin-top="0"
     fit-margin-left="0"
     fit-margin-right="0"
     fit-margin-bottom="0" />
  <defs
     id="defs137800">
    <inkscape:path-effect
       effect="powerclip"
       id="path-effect144298"
       is_visible="true"
       lpeversion="1"
       inverse="true"
       flatten="false"
       hide_clip="false"
       message="Utilise la règle de remplissage « fill-rule: evenodd » de la boîte de dialogue &lt;b&gt;Fond et contour&lt;/b&gt; en l'absence de résultat de mise à plat après une conversion en chemin." />
    <inkscape:path-effect
       effect="powerstroke"
       id="path-effect10301"
       is_visible="true"
       lpeversion="1"
       offset_points="2.0406019,1.0647547 | 5.4391571,0.46148303 | 4.2843323,1.125144 | 15.282707,0.98402965 | 14.082009,0.38328197 | 16.253637,0.62569647 | 22.779764,1.3117679 | 20.81682,0.51402772 | 21.973497,1.1204456 | 10.137728,1.025948 | 11.507502,0.30351293 | 8.9887455,0.63305986"
       not_jump="false"
       sort_points="true"
       interpolator_type="CentripetalCatmullRom"
       interpolator_beta="0.2"
       start_linecap_type="zerowidth"
       linejoin_type="round"
       miter_limit="4"
       scale_width="1"
       end_linecap_type="zerowidth" />
    <inkscape:path-effect
       effect="powerstroke"
       id="path-effect12466"
       is_visible="true"
       lpeversion="1"
       offset_points="0.21757916,0.80085383 | 0.51734656,0.76058643 | 0.8,0.1322915"
       not_jump="false"
       sort_points="true"
       interpolator_type="CentripetalCatmullRom"
       interpolator_beta="0.2"
       start_linecap_type="zerowidth"
       linejoin_type="round"
       miter_limit="4"
       scale_width="1"
       end_linecap_type="zerowidth" />
    <inkscape:path-effect
       effect="powerstroke"
       id="path-effect10301-9"
       is_visible="true"
       lpeversion="1"
       offset_points="2.0406019,1.0647547 | 5.4391571,0.46148303 | 4.2843323,1.125144 | 15.282707,0.98402965 | 14.082009,0.38328197 | 16.253637,0.62569647 | 22.779764,1.3117679 | 20.81682,0.51402772 | 21.973497,1.1204456 | 10.137728,1.025948 | 11.507502,0.30351293 | 8.9887455,0.63305986"
       not_jump="false"
       sort_points="true"
       interpolator_type="CentripetalCatmullRom"
       interpolator_beta="0.2"
       start_linecap_type="zerowidth"
       linejoin_type="round"
       miter_limit="4"
       scale_width="1"
       end_linecap_type="zerowidth" />
    <inkscape:path-effect
       effect="powerstroke"
       id="path-effect12466-6"
       is_visible="true"
       lpeversion="1"
       offset_points="0.21757916,0.80085383 | 0.51734656,0.76058643 | 0.8,0.1322915"
       not_jump="false"
       sort_points="true"
       interpolator_type="CentripetalCatmullRom"
       interpolator_beta="0.2"
       start_linecap_type="zerowidth"
       linejoin_type="round"
       miter_limit="4"
       scale_width="1"
       end_linecap_type="zerowidth" />
    <clipPath
       clipPathUnits="userSpaceOnUse"
       id="clipPath144294">
      <path
         id="path144296"
         style="display:none;fill:#ffffff;fill-rule:evenodd;stroke-width:12.8332;stroke-linejoin:round"
         d="m 187.6155,50.338831 c -36.00063,13.015913 -39.11835,14.129882 -39.11835,14.129882 0,0 -0.51251,2.805198 -1.02774,7.224784 L 197.1914,149.633 c 8.22244,-4.41823 20.49783,-12.59616 28.34677,-25.12137 1.6093,-2.56811 2.93136,-5.41722 4.01546,-8.43371 z" />
      <path
         id="lpe_path-effect144298"
         style="display:inline;fill:#ffffff;fill-rule:evenodd;stroke-width:12.8332;stroke-linejoin:round"
         class="powerclip"
         d="m 157.13161,66.545671 h 67.63977 v 63.207859 h -67.63977 z m 30.48389,-16.20684 c -36.00063,13.015913 -39.11835,14.129882 -39.11835,14.129882 0,0 -0.51251,2.805198 -1.02774,7.224784 L 197.1914,149.633 c 8.22244,-4.41823 20.49783,-12.59616 28.34677,-25.12137 1.6093,-2.56811 2.93136,-5.41722 4.01546,-8.43371 z" />
    </clipPath>
  </defs>
  <path
     id="rect138558"
     style="fill:#003153;fill-opacity:1;fill-rule:evenodd;stroke-width:9.7;stroke-linejoin:round"
     d="M 33.261071,0.14200838 C 2.0081658,12.343175 1.2609558,12.622898 1.2609558,12.622898 c 0,0 -4.556773,28.362182 4.641577,43.899132 9.1983512,15.53694 27.3585382,22.72419 27.3585382,22.72419 0,0 18.160185,-7.18725 27.358536,-22.72419 9.19835,-15.53695 4.641577,-43.899132 4.641577,-43.899132 0,0 -3.928917,-1.530493 -32.000113,-12.48088962 z" />
  <path
     id="rect138431"
     style="fill:#ffffff;fill-rule:evenodd;stroke-width:9.7;stroke-linejoin:round"
     d="M 30.549608,1.1998254 C 3.5954878,11.721682 1.2609558,12.622898 1.2609558,12.622898 c 0,0 -0.3337321,2.129417 -0.6387201,5.478735 L 39.679799,76.04487 c 6.128674,-3.49536 15.248057,-9.9089 20.939808,-19.52284 1.167013,-1.97121 2.111618,-4.14925 2.873211,-6.44922 z" />
  <g
     inkscape:label="Calque 1"
     inkscape:groupmode="layer"
     id="layer1"
     transform="translate(-26.738928,-20.296371)">
    <g
       id="g12748"
       transform="matrix(0.75561086,-0.01908008,0.01908008,0.75561086,-85.43624,-12.960652)"
       style="display:inline">
      <path
         style="fill:#000000;fill-rule:nonzero;stroke:none;stroke-width:0.264583px;stroke-linecap:butt;stroke-linejoin:miter;stroke-opacity:1"
         d="m 173.44599,82.277549 c 0.23747,0.194248 0.44989,0.428731 0.57887,0.697841 0.10187,0.212561 0.14464,0.432581 0.11941,0.65197 -0.0218,0.189695 -0.0944,0.377661 -0.22043,0.558085 -0.11494,0.164534 -0.27582,0.324596 -0.48358,0.469962 -0.19423,0.135901 -0.42911,0.258565 -0.70014,0.356325 -0.25775,0.09297 -0.54708,0.162937 -0.85977,0.199034 -0.59551,0.06875 -1.26932,0.01364 -1.94537,-0.233706 -0.0797,-0.03544 -0.18393,-0.08093 -0.30673,-0.136141 -0.12216,-0.05492 -0.26221,-0.119159 -0.41717,-0.193229 -0.30785,-0.147144 -0.67067,-0.331238 -1.05896,-0.552595 -0.78297,-0.446354 -1.63314,-1.02373 -2.34116,-1.725854 -0.35575,-0.352778 -0.6646,-0.726238 -0.91051,-1.118317 -0.24926,-0.39742 -0.42967,-0.807724 -0.53312,-1.22883 -0.10559,-0.429822 -0.13352,-0.879296 -0.0703,-1.355315 0.0659,-0.496286 0.23209,-1.032679 0.52848,-1.616864 0.0913,-0.179262 0.19255,-0.344552 0.30211,-0.497417 0.22714,-0.316908 0.5013,-0.595442 0.82235,-0.839371 0.46859,-0.356022 1.04547,-0.644434 1.73175,-0.863199 0.67534,-0.215275 1.44376,-0.358936 2.29244,-0.435253 0.83636,-0.07521 1.73597,-0.08371 2.6781,-0.03642 1.86395,0.09355 3.84136,0.40269 5.72784,0.805501 1.86708,0.398669 3.60492,0.880463 4.98887,1.306986 1.38861,0.427984 3.09882,1.01748 4.98812,1.658253 1.92584,0.653169 3.98734,1.342237 6.07856,1.969172 2.15424,0.645828 4.2885,1.210006 6.29455,1.597218 2.10005,0.405356 4.03752,0.613752 5.72308,0.52511 1.95947,-0.10394 3.55951,-0.353068 4.88136,-0.696684 1.14087,-0.296573 2.05589,-0.66537 2.79914,-1.060608 0.99011,-0.526508 1.74033,-1.13475 2.31532,-1.767227 0.59594,-0.655514 1.04407,-1.381492 1.37145,-2.16206 0.0999,-0.229321 0.16921,-0.464366 0.20189,-0.702098 0.0316,-0.22991 0.0286,-0.459401 -0.0114,-0.685249 -0.0384,-0.216435 -0.10989,-0.424015 -0.21184,-0.621197 -0.0972,-0.187981 -0.2211,-0.364698 -0.36835,-0.530385 -0.27282,-0.306974 -0.63155,-0.582557 -1.06623,-0.826736 -0.20837,-0.11705 -0.43661,-0.228216 -0.68429,-0.332654 -0.22362,-0.09429 -0.46467,-0.183534 -0.72292,-0.266583 -0.95275,-0.306392 -2.15998,-0.533497 -3.53404,-0.596148 -1.21354,-0.05533 -2.57016,0.01869 -3.90913,0.29644 -1.21104,0.251308 -2.34842,0.556708 -3.36868,1.059071 -0.49287,0.242681 -0.96318,0.533199 -1.41151,0.891217 -0.43883,0.350436 -0.85432,0.76368 -1.25019,1.2581 -0.77229,0.964557 -1.4647,2.231059 -2.12193,3.943262 -0.64354,1.676561 -1.25419,3.78215 -1.87768,6.463076 -1.23344,5.303404 -2.90595,11.700331 -4.44187,17.287138 -0.77665,2.82504 -1.51257,5.4219 -2.13797,7.56426 -0.31824,1.0902 -0.6076,2.06179 -0.86036,2.8903 -0.25704,0.84251 -0.47551,1.53467 -0.64869,2.05568 -0.33895,1.0178 -0.95076,2.05273 -1.71804,3.00543 -0.81574,1.01288 -1.79089,1.91431 -2.80083,2.63421 -1.10883,0.79039 -2.22958,1.34272 -3.26606,1.64949 -0.56725,0.1679 -1.10095,0.26014 -1.5952,0.2856 -0.48747,0.0251 -0.93158,-0.0149 -1.33307,-0.10726 -0.0417,-0.01 -0.083,-0.0198 -0.12388,-0.0305 -1.18826,-0.30914 -2.26751,-0.88692 -3.11105,-1.56308 -0.98508,-0.78961 -1.66006,-1.71387 -2.02109,-2.6528 -0.19586,-0.50938 -0.30375,-1.03212 -0.32276,-1.56307 -0.0194,-0.54216 0.0531,-1.11023 0.23551,-1.70303 0.18122,-0.58909 0.47722,-1.22299 0.92493,-1.89668 0.43255,-0.65089 1.01767,-1.3553 1.80263,-2.10299 0.83227,-0.79289 1.79324,-1.59643 2.88401,-2.40251 0.8612,-0.63643 1.7719,-1.252 2.71644,-1.84271 2.11741,-1.32422 4.4224,-2.53448 6.75517,-3.58477 2.30913,-1.03965 4.67185,-1.93432 6.92819,-2.62709 2.17794,-0.6687 4.27702,-1.1551 6.10611,-1.386385 1.75868,-0.221754 3.07212,-0.289001 4.0196,-0.23732 0.44994,0.02454 0.80861,0.07548 1.08919,0.145735 0.27156,0.06799 0.4594,0.151469 0.58487,0.237965 0.007,0.005 0.0144,0.01008 0.0213,0.01512 0.0495,0.03632 0.0882,0.07254 0.11811,0.107915 0.0329,0.0388 0.0566,0.078 0.0728,0.11799 0.0159,0.0391 0.0255,0.0814 0.0282,0.12809 0.003,0.0458 -0.002,0.096 -0.0137,0.15062 -0.0238,0.10709 -0.0765,0.22389 -0.15485,0.34338 -0.0752,0.11466 -0.16958,0.22482 -0.27094,0.32219 -0.23614,0.21943 -0.52817,0.40026 -0.88125,0.5371 -0.34577,0.13401 -0.74859,0.22508 -1.21024,0.26791 -0.90429,0.0839 -2.01818,-0.0188 -3.33368,-0.32865 -1.29279,-0.30447 -2.76378,-0.80505 -4.39246,-1.50643 -1.62738,-0.70082 -3.39738,-1.595722 -5.28349,-2.679723 -1.93302,-1.110935 -3.7202,-2.146327 -5.39555,-3.065979 -1.72143,-0.944943 -3.25648,-1.729438 -4.6019,-2.297535 -0.69565,-0.293732 -1.33608,-0.52764 -1.92105,-0.695068 -0.60398,-0.172874 -1.15165,-0.275704 -1.6419,-0.299227 -0.51107,-0.02452 -0.96826,0.03676 -1.36355,0.202087 -0.20562,0.086 -0.39217,0.199247 -0.55841,0.340123 -0.17118,0.145053 -0.3173,0.316393 -0.43962,0.510993 -0.12766,0.203201 -0.21477,0.411872 -0.26091,0.623862 -0.0147,0.06762 -0.0252,0.135248 -0.0315,0.202772 -0.0142,0.151235 -0.008,0.301044 0.018,0.448098 0.038,0.218118 0.11712,0.425977 0.22788,0.621089 0.11315,0.199323 0.25957,0.385921 0.4307,0.559148 0.35284,0.357163 0.82153,0.668652 1.36389,0.931431 0.5682,0.275291 1.22978,0.503345 1.95782,0.679176 1.53939,0.371784 3.39546,0.515997 5.42177,0.380155 2.12793,-0.142655 4.47107,-0.595046 6.91584,-1.43824 2.46726,-0.85102 4.91025,-2.070219 7.14856,-3.540677 0.29036,-0.190756 0.57772,-0.386029 0.86162,-0.585589 2.03151,-1.428019 3.69631,-2.938331 4.99053,-4.384458 0.82156,-0.918001 1.53059,-1.850557 2.11519,-2.780448 0.58324,-0.927717 1.06344,-1.885949 1.40028,-2.852642 0.31765,-0.911662 0.52096,-1.869022 0.53724,-2.83436 0.0148,-0.879135 -0.12524,-1.792742 -0.50445,-2.687469 -0.33534,-0.790557 -0.80494,-1.493862 -1.42265,-2.076561 -0.55109,-0.519853 -1.21125,-0.935115 -1.97657,-1.228276 -0.021,-0.008 -0.042,-0.01598 -0.0631,-0.02382 -0.66246,-0.246095 -1.40554,-0.401212 -2.22143,-0.449536 -0.75452,-0.04469 -1.56409,0.0026 -2.40843,0.149426 -1.50013,0.260882 -3.11614,0.840567 -4.57514,1.733039 -0.66641,0.407644 -1.29967,0.881212 -1.85555,1.412668 -0.53092,0.507586 -0.9972,1.073859 -1.34674,1.687101 -1.21897,2.141185 -2.08295,4.236075 -2.81725,6.506436 -0.69046,2.134788 -1.18164,4.134501 -1.84022,6.49508 -0.15696,0.562503 -0.34447,1.262215 -0.55688,2.067999 -0.21117,0.801099 -0.44607,1.70371 -0.69976,2.679507 -0.50296,1.934607 -1.07906,4.154212 -1.66981,6.358718 -0.59074,2.20452 -1.19555,4.39181 -1.7618,6.28548 -0.28393,0.94954 -0.55712,1.82172 -0.81332,2.58393 -0.2578,0.76699 -0.49633,1.41641 -0.70965,1.91953 -0.91925,2.16779 -1.65874,4.1081 -2.87961,5.9655 -0.62524,0.95122 -1.35361,1.83987 -2.2469,2.66967 -0.93589,0.86937 -2.04064,1.66245 -3.36361,2.38176 -1.35763,0.73797 -2.75412,0.96181 -4.00051,0.89969 -1.37132,-0.0683 -2.58087,-0.47845 -3.49836,-0.99242 -0.50358,-0.2821 -0.9193,-0.5954 -1.24319,-0.90965 -0.35313,-0.34262 -0.59133,-0.68016 -0.73301,-0.98609 -0.0762,-0.16461 -0.1238,-0.31826 -0.14854,-0.45918 -0.002,-0.01 -0.003,-0.02 -0.005,-0.0299 -0.021,-0.13588 -0.021,-0.26179 -0.004,-0.37804 0.019,-0.12875 0.0596,-0.25005 0.12098,-0.36506 0.0638,-0.11948 0.15263,-0.23711 0.27041,-0.35146 0.61255,-0.60409 1.37141,-1.0523 2.18011,-1.3734 0.92519,-0.36735 1.94684,-0.58158 2.99313,-0.67659 2.12187,-0.19268 4.60243,0.0816 7.22846,0.83383 0.1501,0.043 0.29898,0.0873 0.4466,0.13279 0.42897,0.13984 1.14643,0.36201 2.01639,0.62319 0.94363,0.2833 2.08084,0.61684 3.33473,0.97411 2.47069,0.70397 5.65259,1.57372 9.02821,2.40537 2.83601,0.6987 6.35177,1.50393 9.52901,2.05065 0.34169,0.0588 0.68261,0.11514 1.02065,0.16829 0.99431,0.15635 2.01269,0.29199 2.96389,0.37572 0.57102,0.0503 1.12878,0.0828 1.64898,0.0885 0.48957,0.005 0.96481,-0.0127 1.39642,-0.0677 2.67935,-0.34963 5.11082,-1.18752 6.97379,-2.58485 1.6773,-1.25808 2.70113,-2.83122 3.0794,-4.46996 0.20634,-0.87663 0.16453,-1.79807 -0.0434,-2.63444 -0.22485,-0.90429 -0.64218,-1.71199 -1.1748,-2.3451 -0.29123,-0.34618 -0.61303,-0.63618 -0.95452,-0.86873 -0.37556,-0.25575 -0.76731,-0.43699 -1.1628,-0.55356 -0.4559,-0.13437 -0.9061,-0.17985 -1.33569,-0.165 -0.55176,0.0191 -1.05813,0.13717 -1.4874,0.27954 0.44274,-0.10393 0.95045,-0.16632 1.48361,-0.12115 0.41406,0.0351 0.82812,0.13383 1.22692,0.31325 0.34523,0.15532 0.67097,0.36757 0.96807,0.63899 0.27012,0.24678 0.51308,0.53942 0.72127,0.87348 0.38155,0.61226 0.63731,1.35149 0.71817,2.12962 0.0755,0.72679 -0.007,1.45037 -0.25087,2.063 -0.48825,1.23492 -1.45069,2.35636 -2.89959,3.22485 -1.62718,0.97536 -3.72101,1.54782 -6.12864,1.74594 -0.28753,0.0221 -0.6435,0.0248 -1.0648,0.007 -0.44177,-0.019 -0.93414,-0.06 -1.46108,-0.11813 -0.87728,-0.0967 -1.83647,-0.23922 -2.79591,-0.40051 -0.32488,-0.0546 -0.6537,-0.11213 -0.98442,-0.17189 -3.06063,-0.55302 -6.57212,-1.35066 -9.3673,-2.01487 -3.28751,-0.7812 -6.58769,-1.61803 -8.99994,-2.23746 -0.56803,-0.14586 -2.77693,-0.71808 -3.34495,-0.86394 -0.86391,-0.22358 -1.60837,-0.41558 -2.03562,-0.51935 -0.16342,-0.0428 -0.32823,-0.0844 -0.49436,-0.12455 -2.9163,-0.70522 -5.67306,-0.77937 -8.03457,-0.33873 -1.16011,0.21646 -2.2988,0.57167 -3.32825,1.09437 -0.89996,0.45697 -1.75516,1.06228 -2.4431,1.84602 -0.18064,0.20417 -0.32636,0.427 -0.431,0.6672 -0.10109,0.23206 -0.1616,0.4753 -0.18038,0.7258 -0.0169,0.22487 2e-4,0.45142 0.0484,0.6767 0.004,0.0164 0.007,0.0328 0.011,0.0492 0.0539,0.23 0.14058,0.46045 0.25871,0.68862 0.21826,0.42158 0.54613,0.83989 0.97672,1.23462 0.39641,0.3634 0.8852,0.71136 1.45687,1.0169 1.0345,0.55291 2.38446,0.98732 3.89706,1.04561 1.37999,0.0532 2.92793,-0.20841 4.42907,-1.03679 1.37245,-0.75753 2.52773,-1.59514 3.51186,-2.51777 0.93964,-0.88093 1.70431,-1.82128 2.35823,-2.82096 1.26536,-1.93443 2.03651,-3.95648 2.94597,-6.0871 0.22564,-0.52865 0.47291,-1.1985 0.73555,-1.97391 0.26172,-0.77265 0.53965,-1.65294 0.82754,-2.6072 0.57408,-1.90292 1.18676,-4.09684 1.78493,-6.30255 0.598,-2.20513 1.18298,-4.427678 1.69382,-6.358102 0.25787,-0.974455 0.49695,-1.874903 0.71221,-2.672631 0.21672,-0.803167 0.40781,-1.496644 0.56789,-2.050836 0.68702,-2.378935 1.19291,-4.342449 1.90027,-6.436646 0.74751,-2.213061 1.6165,-4.231867 2.82418,-6.281787 0.29794,-0.504981 0.70289,-0.987129 1.18148,-1.431763 0.50027,-0.464778 1.07645,-0.88448 1.69087,-1.24841 1.34938,-0.799265 2.83773,-1.306938 4.2009,-1.520645 0.76471,-0.119887 1.48244,-0.147157 2.13548,-0.09562 0.70563,0.05568 1.32417,0.202156 1.85552,0.414003 0.017,0.0068 0.0338,0.01359 0.0506,0.02049 0.61059,0.250928 1.11318,0.594345 1.51809,1.006252 0.45345,0.461295 0.79476,1.018721 1.0331,1.65842 0.25924,0.696887 0.33265,1.406949 0.2838,2.100584 -0.0539,0.765716 -0.2592,1.543789 -0.57075,2.310512 -0.33006,0.812291 -0.78856,1.634454 -1.34705,2.449509 -0.55893,0.815706 -1.23393,1.647446 -2.01453,2.479452 -1.22753,1.308373 -2.8064,2.711783 -4.7166,4.066709 -0.26719,0.189514 -0.5374,0.375655 -0.81023,0.558162 -2.10435,1.40767 -4.38504,2.613015 -6.67695,3.490829 -2.27624,0.871745 -4.45685,1.399618 -6.44286,1.643834 -1.8948,0.233 -3.62621,0.207454 -5.05013,-0.03056 -0.67471,-0.11278 -1.27615,-0.27248 -1.78455,-0.471057 -0.4882,-0.190686 -0.88039,-0.413342 -1.16353,-0.654097 -0.13608,-0.11571 -0.24447,-0.233505 -0.32602,-0.351237 -0.0794,-0.114563 -0.13344,-0.229245 -0.16346,-0.34338 -0.0203,-0.07703 -0.0301,-0.155967 -0.0284,-0.237225 7.7e-4,-0.03649 0.004,-0.07389 0.009,-0.112215 0.0176,-0.11936 0.0605,-0.25107 0.1402,-0.394039 0.0783,-0.140319 0.17095,-0.260652 0.27868,-0.362297 0.10464,-0.09872 0.22621,-0.182381 0.36762,-0.249727 0.2738,-0.130384 0.62604,-0.201314 1.07305,-0.194628 0.42855,0.0064 0.93024,0.08394 1.5096,0.23583 0.5596,0.146713 1.18179,0.360154 1.86801,0.637107 1.32839,0.536127 2.85464,1.292817 4.57949,2.21956 1.67564,0.900298 3.46917,1.922953 5.40785,3.023758 1.90361,1.080913 3.69161,1.97552 5.33789,2.678331 1.64697,0.7031 3.14114,1.20957 4.4616,1.52112 1.34139,0.31648 2.4994,0.4312 3.46231,0.34949 0.49249,-0.0418 0.93485,-0.13511 1.32511,-0.27996 0.39936,-0.14822 0.74368,-0.35024 1.03055,-0.60521 0.12708,-0.1099 0.2513,-0.2384 0.35719,-0.37861 0.10929,-0.14471 0.20236,-0.30622 0.25824,-0.47837 0.029,-0.0893 0.0483,-0.18245 0.0542,-0.27825 0.006,-0.0985 -0.002,-0.19849 -0.0273,-0.29819 -0.026,-0.102583 -0.0692,-0.201279 -0.1293,-0.294749 -0.0543,-0.08437 -0.12124,-0.16282 -0.19942,-0.235385 -0.0108,-0.01004 -0.0219,-0.01999 -0.0331,-0.02983 -0.19023,-0.166343 -0.44487,-0.306247 -0.76119,-0.421281 -0.32858,-0.119494 -0.73165,-0.215026 -1.21459,-0.284216 -1.01475,-0.145382 -2.39585,-0.176311 -4.2039,-0.05908 -1.92387,0.12538 -4.12347,0.508893 -6.39278,1.082487 -2.35354,0.594884 -4.82273,1.404024 -7.23916,2.384294 -2.44073,0.99013 -4.86614,2.17033 -7.10295,3.51264 -0.99824,0.59905 -1.96476,1.2339 -2.88113,1.90218 -1.16062,0.84639 -2.19143,1.70913 -3.08966,2.5796 -0.87949,0.85219 -1.55558,1.6888 -2.06295,2.4999 -0.52581,0.84059 -0.87869,1.66712 -1.08199,2.4688 -0.2049,0.80804 -0.25854,1.5938 -0.1809,2.34466 0.0759,0.73378 0.27693,1.4326 0.58322,2.08646 0.56225,1.20025 1.4913,2.27202 2.68547,3.1303 1.02357,0.73567 2.29274,1.34624 3.6674,1.66295 0.0538,0.0124 0.10803,0.0239 0.16256,0.0348 0.5259,0.10428 1.08619,0.13564 1.67684,0.0891 0.59797,-0.0471 1.22156,-0.17369 1.86285,-0.38016 1.16832,-0.37616 2.38766,-1.01611 3.56291,-1.88861 1.0717,-0.79562 2.1005,-1.78173 2.95815,-2.88649 0.80443,-1.03621 1.46368,-2.18552 1.82637,-3.34645 0.1662,-0.53291 0.3772,-1.23524 0.62568,-2.08355 0.24457,-0.83494 0.52582,-1.81258 0.83585,-2.90752 0.60911,-2.15124 1.33007,-4.7581 2.09221,-7.59011 1.50743,-5.6014 3.15711,-12.013955 4.37499,-17.336366 0.60975,-2.664912 1.20358,-4.73579 1.82445,-6.369812 0.63388,-1.668272 1.28936,-2.862698 1.99829,-3.75066 0.36257,-0.454128 0.7395,-0.828439 1.13413,-1.143043 0.4032,-0.321441 0.82814,-0.583101 1.27823,-0.802734 0.93699,-0.457219 2.00306,-0.740692 3.19497,-0.977335 1.26973,-0.251994 2.56028,-0.307443 3.71453,-0.235149 1.3085,0.08195 2.43235,0.325202 3.28925,0.635854 0.23115,0.0838 0.44253,0.172261 0.63439,0.263748 0.21265,0.101406 0.40125,0.20676 0.56667,0.314002 0.34838,0.225856 0.58717,0.455546 0.73805,0.670715 0.0806,0.114903 0.13505,0.224103 0.16938,0.325968 0.0358,0.106167 0.0503,0.205954 0.0494,0.30022 -8.9e-4,0.09797 -0.0184,0.196186 -0.0518,0.29621 -0.0348,0.10427 -0.0887,0.21572 -0.16531,0.334388 -0.36815,0.590688 -0.82477,1.089222 -1.36299,1.516925 -0.51698,0.410827 -1.17102,0.805203 -2.00933,1.154483 -0.63083,0.262829 -1.42481,0.524656 -2.42982,0.744992 -1.16972,0.256446 -2.62546,0.448203 -4.46047,0.513907 -1.41813,0.04994 -3.14918,-0.143771 -5.14646,-0.545154 -1.89645,-0.381122 -3.94369,-0.93098 -6.05363,-1.569374 -2.04803,-0.619666 -4.07192,-1.297032 -5.99846,-1.946932 -1.86855,-0.630341 -3.62852,-1.229169 -5.06794,-1.660544 -1.43986,-0.431482 -3.25386,-0.918251 -5.21123,-1.315701 -1.9723,-0.400484 -4.08689,-0.709687 -6.11789,-0.782527 -1.02924,-0.03691 -2.04028,-0.01328 -3.00408,0.09082 -0.97632,0.105453 -1.91141,0.294237 -2.77181,0.590577 -0.87642,0.301861 -1.68151,0.717529 -2.37142,1.274514 -0.47484,0.383344 -0.88929,0.829041 -1.23152,1.340358 -0.16417,0.245278 -0.31251,0.506991 -0.44303,0.785763 -0.36758,0.786797 -0.58393,1.565185 -0.64674,2.329155 -0.0607,0.738299 0.0241,1.438398 0.22961,2.092873 0.1995,0.635412 0.50721,1.210646 0.88264,1.726533 0.36818,0.505931 0.80124,0.95453 1.26187,1.349228 0.90844,0.778399 1.94103,1.361418 2.83637,1.765811 0.45014,0.203312 0.86946,0.363222 1.22769,0.481544 0.18056,0.05964 0.34614,0.108897 0.49344,0.148108 0.1484,0.0395 0.27858,0.06891 0.38886,0.08888 0.89666,0.211147 1.74383,0.162638 2.45015,-0.02557 0.37238,-0.09922 0.70859,-0.237804 1.00099,-0.40098 0.30759,-0.171655 0.56727,-0.370731 0.77473,-0.583181 0.2223,-0.22766 0.38357,-0.469393 0.48449,-0.711615 0.11123,-0.266985 0.14629,-0.527075 0.11991,-0.768137 -0.0301,-0.274613 -0.13908,-0.516284 -0.28889,-0.721476 -0.18838,-0.258029 -0.44333,-0.463306 -0.69898,-0.625405 z"
         id="path9060"
         sodipodi:nodetypes="csszssssssssssssssssssszsc"
         inkscape:path-effect="#path-effect10301"
         inkscape:original-d="m 173.44599,82.277549 c 2.33725,1.687563 -0.60803,4.162446 -3.6767,3.267935 -1.52833,-0.445505 -8.60166,-3.359161 -5.8916,-8.954636 2.71006,-5.595474 14.20568,-2.985627 19.84722,-1.271491 5.64154,1.714136 16.31077,6.020437 22.6754,5.735878 6.36462,-0.284559 9.45812,-2.134215 10.81494,-4.808443 1.43731,-2.832869 -4.63409,-4.598907 -9.62545,-3.585283 -4.99135,1.013627 -7.28225,2.718654 -9.73003,13.329155 -2.44778,10.610501 -6.63842,25.601696 -8.00881,29.857466 -1.3704,4.25578 -7.21966,8.93853 -11.44338,7.90739 -4.73291,-1.15544 -9.56342,-6.57761 -3.05104,-12.83736 6.51238,-6.25975 18.71084,-10.955361 26.0478,-11.652337 7.33697,-0.696976 6.5952,1.229977 5.69687,2.044817 -2.11721,1.92043 -7.75388,0.65788 -15.35929,-3.686779 -7.60542,-4.344656 -13.87325,-8.028752 -15.50314,-5.307105 -1.62989,2.721647 5.85059,5.457211 15.42636,1.978734 9.57577,-3.478477 18.63,-12.503187 16.20064,-18.5607 -2.42936,-6.057514 -12.22808,-3.185785 -14.76786,1.200658 -2.53978,4.386442 -3.41848,8.377864 -4.69096,12.859975 -1.27247,4.482107 -4.50583,17.791557 -6.26658,21.930197 -1.76076,4.13863 -3.12232,8.19105 -8.65309,11.22138 -5.53077,3.03034 -12.28465,-1.72573 -9.85373,-4.32001 2.43091,-2.59428 7.63711,-3.46615 13.57429,-1.78024 3.29379,0.9353 24.88728,7.07299 30.49615,6.4688 5.60887,-0.60419 8.6808,-3.16593 9.54071,-6.0128 0.87992,-2.91315 -1.28967,-7.28565 -5.51291,-6.09224" />
      <path
         style="fill:#000000;fill-rule:nonzero;stroke:none;stroke-width:0.264583px;stroke-linecap:butt;stroke-linejoin:miter;stroke-opacity:1"
         d="m 219.63918,78.449616 c -1.66604,2.384937 -4.25741,6.087975 -6.31382,10.283635 -2.02092,4.123265 -3.4175,8.267245 -4.32366,11.719419 -0.0544,0.20718 -0.10669,0.41059 -0.15701,0.61011 -0.8594,3.40764 -0.98787,6.01422 -1.11707,7.45507 -0.12719,1.41835 -0.16259,1.70171 -0.13239,1.70523 0.0219,0.003 0.0808,-0.49996 0.39288,-1.6589 0.37138,-1.37908 1.28104,-3.8799 2.31854,-7.08111 0.0623,-0.19231 0.12639,-0.38843 0.19221,-0.58825 1.18008,-3.582901 2.49197,-7.085973 4.28827,-11.506809 1.48417,-3.652668 3.84417,-9.030357 4.85205,-10.938395 z"
         id="path12464"
         inkscape:path-effect="#path-effect12466"
         inkscape:original-d="M 219.63918,78.449616 C 209.32737,95.349347 207.59523,110.22308 207.59523,110.22308" />
      <path
         sodipodi:type="star"
         style="fill:#000000;fill-opacity:1;fill-rule:evenodd;stroke:none;stroke-width:0.377953;stroke-linejoin:round;stroke-miterlimit:4;stroke-dasharray:none;stroke-opacity:1"
         id="path12627"
         inkscape:flatsided="false"
         sodipodi:sides="5"
         sodipodi:cx="781.31506"
         sodipodi:cy="430.97455"
         sodipodi:r1="12.074959"
         sodipodi:r2="6.0374794"
         sodipodi:arg1="-0.56945297"
         sodipodi:arg2="0.058865564"
         inkscape:rounded="0"
         inkscape:randomized="0"
         transform="matrix(0.26458333,0,0,0.26458333,0.33951073,-0.44421997)"
         inkscape:transform-center-x="0.24931439"
         inkscape:transform-center-y="-0.058083359"
         d="m 791.48455,424.46408 -4.14246,6.86566 3.30734,7.30471 -7.80972,-1.8181 -5.92517,5.40275 -0.68422,-7.98932 -6.9693,-3.96562 7.38686,-3.11956 1.6179,-7.85365 5.24955,6.06132 z" />
    </g>
    <g
       id="g12748-4"
       transform="matrix(0.75561086,-0.01908008,0.01908008,0.75561086,-85.43624,-12.960652)"
       clip-path="url(#clipPath144294)"
       inkscape:path-effect="#path-effect144298"
       style="fill:#000000;stroke:#ffffff;stroke-width:0.264602;stroke-linecap:butt;stroke-linejoin:round;stroke-miterlimit:4;stroke-dasharray:none;stroke-dashoffset:0;stroke-opacity:1;paint-order:stroke markers fill">
      <path
         style="fill:#000000;fill-rule:nonzero;stroke:#ffffff;stroke-width:0.264602;stroke-linecap:butt;stroke-linejoin:round;stroke-miterlimit:4;stroke-dasharray:none;stroke-dashoffset:0;stroke-opacity:1;paint-order:stroke markers fill"
         d="m 173.44599,82.277549 c 0.23747,0.194248 0.44989,0.428731 0.57887,0.697841 0.10187,0.212561 0.14464,0.432581 0.11941,0.65197 -0.0218,0.189695 -0.0944,0.377661 -0.22043,0.558085 -0.11494,0.164534 -0.27582,0.324596 -0.48358,0.469962 -0.19423,0.135901 -0.42911,0.258565 -0.70014,0.356325 -0.25775,0.09297 -0.54708,0.162937 -0.85977,0.199034 -0.59551,0.06875 -1.26932,0.01364 -1.94537,-0.233706 -0.0797,-0.03544 -0.18393,-0.08093 -0.30673,-0.136141 -0.12216,-0.05492 -0.26221,-0.119159 -0.41717,-0.193229 -0.30785,-0.147144 -0.67067,-0.331238 -1.05896,-0.552595 -0.78297,-0.446354 -1.63314,-1.02373 -2.34116,-1.725854 -0.35575,-0.352778 -0.6646,-0.726238 -0.91051,-1.118317 -0.24926,-0.39742 -0.42967,-0.807724 -0.53312,-1.22883 -0.10559,-0.429822 -0.13352,-0.879296 -0.0703,-1.355315 0.0659,-0.496286 0.23209,-1.032679 0.52848,-1.616864 0.0913,-0.179262 0.19255,-0.344552 0.30211,-0.497417 0.22714,-0.316908 0.5013,-0.595442 0.82235,-0.839371 0.46859,-0.356022 1.04547,-0.644434 1.73175,-0.863199 0.67534,-0.215275 1.44376,-0.358936 2.29244,-0.435253 0.83636,-0.07521 1.73597,-0.08371 2.6781,-0.03642 1.86395,0.09355 3.84136,0.40269 5.72784,0.805501 1.86708,0.398669 3.60492,0.880463 4.98887,1.306986 1.38861,0.427984 3.09882,1.01748 4.98812,1.658253 1.92584,0.653169 3.98734,1.342237 6.07856,1.969172 2.15424,0.645828 4.2885,1.210006 6.29455,1.597218 2.10005,0.405356 4.03752,0.613752 5.72308,0.52511 1.95947,-0.10394 3.55951,-0.353068 4.88136,-0.696684 1.14087,-0.296573 2.05589,-0.66537 2.79914,-1.060608 0.99011,-0.526508 1.74033,-1.13475 2.31532,-1.767227 0.59594,-0.655514 1.04407,-1.381492 1.37145,-2.16206 0.0999,-0.229321 0.16921,-0.464366 0.20189,-0.702098 0.0316,-0.22991 0.0286,-0.459401 -0.0114,-0.685249 -0.0384,-0.216435 -0.10989,-0.424015 -0.21184,-0.621197 -0.0972,-0.187981 -0.2211,-0.364698 -0.36835,-0.530385 -0.27282,-0.306974 -0.63155,-0.582557 -1.06623,-0.826736 -0.20837,-0.11705 -0.43661,-0.228216 -0.68429,-0.332654 -0.22362,-0.09429 -0.46467,-0.183534 -0.72292,-0.266583 -0.95275,-0.306392 -2.15998,-0.533497 -3.53404,-0.596148 -1.21354,-0.05533 -2.57016,0.01869 -3.90913,0.29644 -1.21104,0.251308 -2.34842,0.556708 -3.36868,1.059071 -0.49287,0.242681 -0.96318,0.533199 -1.41151,0.891217 -0.43883,0.350436 -0.85432,0.76368 -1.25019,1.2581 -0.77229,0.964557 -1.4647,2.231059 -2.12193,3.943262 -0.64354,1.676561 -1.25419,3.78215 -1.87768,6.463076 -1.23344,5.303404 -2.90595,11.700331 -4.44187,17.287142 -0.77665,2.82504 -1.51257,5.4219 -2.13797,7.56426 -0.31824,1.0902 -0.6076,2.06179 -0.86036,2.8903 -0.25704,0.84251 -0.47551,1.53467 -0.64869,2.05568 -0.33895,1.0178 -0.95076,2.05273 -1.71804,3.00543 -0.81574,1.01288 -1.79089,1.91431 -2.80083,2.63421 -1.10883,0.79039 -2.22958,1.34272 -3.26606,1.64949 -0.56725,0.1679 -1.10095,0.26014 -1.5952,0.2856 -0.48747,0.0251 -0.93158,-0.0149 -1.33307,-0.10726 -0.0417,-0.01 -0.083,-0.0198 -0.12388,-0.0305 -1.18826,-0.30914 -2.26751,-0.88692 -3.11105,-1.56308 -0.98508,-0.78961 -1.66006,-1.71387 -2.02109,-2.6528 -0.19586,-0.50938 -0.30375,-1.03212 -0.32276,-1.56307 -0.0194,-0.54216 0.0531,-1.11023 0.23551,-1.70303 0.18122,-0.58909 0.47722,-1.22299 0.92493,-1.89668 0.43255,-0.65089 1.01767,-1.3553 1.80263,-2.10299 0.83227,-0.79289 1.79324,-1.59643 2.88401,-2.40251 0.8612,-0.63643 1.7719,-1.252 2.71644,-1.84271 2.11741,-1.32422 4.4224,-2.53448 6.75517,-3.58477 2.30913,-1.03965 4.67185,-1.93432 6.92819,-2.62709 2.17794,-0.6687 4.27702,-1.1551 6.10611,-1.386389 1.75868,-0.221754 3.07212,-0.289001 4.0196,-0.23732 0.44994,0.02454 0.80861,0.07548 1.08919,0.145735 0.27156,0.06799 0.4594,0.151469 0.58487,0.237965 0.007,0.005 0.0144,0.01008 0.0213,0.01512 0.0495,0.03632 0.0882,0.07257 0.11811,0.107913 0.0329,0.0388 0.0566,0.078 0.0728,0.11799 0.0159,0.0391 0.0255,0.0814 0.0282,0.12809 0.003,0.0458 -0.002,0.096 -0.0137,0.15062 -0.0238,0.10709 -0.0765,0.22389 -0.15485,0.34338 -0.0752,0.11466 -0.16958,0.22482 -0.27094,0.32219 -0.23614,0.21943 -0.52817,0.40026 -0.88125,0.5371 -0.34577,0.13401 -0.74859,0.22508 -1.21024,0.26791 -0.90429,0.0839 -2.01818,-0.0188 -3.33368,-0.32865 -1.29279,-0.30447 -2.76378,-0.80505 -4.39246,-1.50643 -1.62738,-0.700818 -3.39738,-1.59572 -5.28349,-2.679721 -1.93302,-1.110935 -3.7202,-2.146327 -5.39555,-3.065979 -1.72143,-0.944943 -3.25648,-1.729438 -4.6019,-2.297535 -0.69565,-0.293732 -1.33608,-0.52764 -1.92105,-0.695068 -0.60398,-0.172874 -1.15165,-0.275704 -1.6419,-0.299227 -0.51107,-0.02452 -0.96826,0.03676 -1.36355,0.202087 -0.20562,0.086 -0.39217,0.199247 -0.55841,0.340123 -0.17118,0.145053 -0.3173,0.316393 -0.43962,0.510993 -0.12766,0.203201 -0.21477,0.411872 -0.26091,0.623862 -0.0147,0.06762 -0.0252,0.135248 -0.0315,0.202772 -0.0142,0.151235 -0.008,0.301044 0.018,0.448098 0.038,0.218118 0.11712,0.425977 0.22788,0.621089 0.11315,0.199323 0.25957,0.385921 0.4307,0.559148 0.35284,0.357163 0.82153,0.668652 1.36389,0.931431 0.5682,0.275291 1.22978,0.503345 1.95782,0.679176 1.53939,0.371784 3.39546,0.515997 5.42177,0.380155 2.12793,-0.142655 4.47107,-0.595046 6.91584,-1.43824 2.46726,-0.85102 4.91025,-2.070219 7.14856,-3.540677 0.29036,-0.190756 0.57772,-0.386029 0.86162,-0.585589 2.03151,-1.428019 3.69631,-2.938331 4.99053,-4.384458 0.82156,-0.918001 1.53059,-1.850557 2.11519,-2.780448 0.58324,-0.927717 1.06344,-1.885949 1.40028,-2.852642 0.31765,-0.911662 0.52096,-1.869022 0.53724,-2.83436 0.0148,-0.879135 -0.12524,-1.792742 -0.50445,-2.687469 -0.33534,-0.790557 -0.80494,-1.493862 -1.42265,-2.076561 -0.55109,-0.519853 -1.21125,-0.935115 -1.97657,-1.228276 -0.021,-0.008 -0.042,-0.01598 -0.0631,-0.02382 -0.66246,-0.246095 -1.40554,-0.401212 -2.22143,-0.449536 -0.75452,-0.04469 -1.56409,0.0026 -2.40843,0.149426 -1.50013,0.260882 -3.11614,0.840567 -4.57514,1.733039 -0.66641,0.407644 -1.29967,0.881212 -1.85555,1.412668 -0.53092,0.507586 -0.9972,1.073859 -1.34674,1.687101 -1.21897,2.141185 -2.08295,4.236075 -2.81725,6.506436 -0.69046,2.134788 -1.18164,4.134501 -1.84022,6.49508 -0.15696,0.562503 -0.34447,1.262215 -0.55688,2.067999 -0.21117,0.801099 -0.44607,1.70371 -0.69976,2.679507 -0.50296,1.934607 -1.07906,4.154212 -1.66981,6.358719 -0.59074,2.20452 -1.19555,4.39181 -1.7618,6.28548 -0.28393,0.94954 -0.55712,1.82172 -0.81332,2.58393 -0.2578,0.76699 -0.49633,1.41641 -0.70965,1.91953 -0.91925,2.16779 -1.65874,4.1081 -2.87961,5.9655 -0.62524,0.95122 -1.35361,1.83987 -2.2469,2.66967 -0.93589,0.86937 -2.04064,1.66245 -3.36361,2.38176 -1.35763,0.73797 -2.75412,0.96181 -4.00051,0.89969 -1.37132,-0.0683 -2.58087,-0.47845 -3.49836,-0.99242 -0.50358,-0.2821 -0.9193,-0.5954 -1.24319,-0.90965 -0.35313,-0.34262 -0.59133,-0.68016 -0.73301,-0.98609 -0.0762,-0.16461 -0.1238,-0.31826 -0.14854,-0.45918 -0.002,-0.01 -0.003,-0.02 -0.005,-0.0299 -0.021,-0.13588 -0.021,-0.26179 -0.004,-0.37804 0.019,-0.12875 0.0596,-0.25005 0.12098,-0.36506 0.0638,-0.11948 0.15263,-0.23711 0.27041,-0.35146 0.61255,-0.60409 1.37141,-1.0523 2.18011,-1.3734 0.92519,-0.36735 1.94684,-0.58158 2.99313,-0.67659 2.12187,-0.19268 4.60243,0.0816 7.22846,0.83383 0.1501,0.043 0.29898,0.0873 0.4466,0.13279 0.42897,0.13984 1.14643,0.36201 2.01639,0.62319 0.94363,0.2833 2.08084,0.61684 3.33473,0.97411 2.47069,0.70397 5.65259,1.57372 9.02821,2.40537 2.83601,0.6987 6.35177,1.50393 9.52901,2.05065 0.34169,0.0588 0.68261,0.11514 1.02065,0.16829 0.99431,0.15635 2.01269,0.29199 2.96389,0.37572 0.57102,0.0503 1.12878,0.0828 1.64898,0.0885 0.48957,0.005 0.96481,-0.0127 1.39642,-0.0677 2.67935,-0.34963 5.11082,-1.18752 6.97379,-2.58485 1.6773,-1.25808 2.70113,-2.83122 3.0794,-4.46996 0.20634,-0.87663 0.16453,-1.79807 -0.0434,-2.63444 -0.22485,-0.90429 -0.64218,-1.71199 -1.1748,-2.3451 -0.29123,-0.34618 -0.61303,-0.63618 -0.95452,-0.86873 -0.37556,-0.25575 -0.76731,-0.43699 -1.1628,-0.55356 -0.4559,-0.13437 -0.9061,-0.17985 -1.33569,-0.165 -0.55176,0.0191 -1.05813,0.13717 -1.4874,0.27954 0.44274,-0.10393 0.95045,-0.16632 1.48361,-0.12115 0.41406,0.0351 0.82812,0.13383 1.22692,0.31325 0.34523,0.15532 0.67097,0.36757 0.96807,0.63899 0.27012,0.24678 0.51308,0.53942 0.72127,0.87348 0.38155,0.61226 0.63731,1.35149 0.71817,2.12962 0.0755,0.72679 -0.007,1.45037 -0.25087,2.063 -0.48825,1.23492 -1.45069,2.35636 -2.89959,3.22485 -1.62718,0.97536 -3.72101,1.54782 -6.12864,1.74594 -0.28753,0.0221 -0.6435,0.0248 -1.0648,0.007 -0.44177,-0.019 -0.93414,-0.06 -1.46108,-0.11813 -0.87728,-0.0967 -1.83647,-0.23922 -2.79591,-0.40051 -0.32488,-0.0546 -0.6537,-0.11213 -0.98442,-0.17189 -3.06063,-0.55302 -6.57212,-1.35066 -9.3673,-2.01487 -3.28751,-0.7812 -6.58769,-1.61803 -8.99994,-2.23746 -0.56803,-0.14586 -2.77693,-0.71808 -3.34495,-0.86394 -0.86391,-0.22358 -1.60837,-0.41558 -2.03562,-0.51935 -0.16342,-0.0428 -0.32823,-0.0844 -0.49436,-0.12455 -2.9163,-0.70522 -5.67306,-0.77937 -8.03457,-0.33873 -1.16011,0.21646 -2.2988,0.57167 -3.32825,1.09437 -0.89996,0.45697 -1.75516,1.06228 -2.4431,1.84602 -0.18064,0.20417 -0.32636,0.427 -0.431,0.6672 -0.10109,0.23206 -0.1616,0.4753 -0.18038,0.7258 -0.0169,0.22487 2e-4,0.45142 0.0484,0.6767 0.004,0.0164 0.007,0.0328 0.011,0.0492 0.0539,0.23 0.14058,0.46045 0.25871,0.68862 0.21826,0.42158 0.54613,0.83989 0.97672,1.23462 0.39641,0.3634 0.8852,0.71136 1.45687,1.0169 1.0345,0.55291 2.38446,0.98732 3.89706,1.04561 1.37999,0.0532 2.92793,-0.20841 4.42907,-1.03679 1.37245,-0.75753 2.52773,-1.59514 3.51186,-2.51777 0.93964,-0.88093 1.70431,-1.82128 2.35823,-2.82096 1.26536,-1.93443 2.03651,-3.95648 2.94597,-6.0871 0.22564,-0.52865 0.47291,-1.1985 0.73555,-1.97391 0.26172,-0.77265 0.53965,-1.65294 0.82754,-2.6072 0.57408,-1.90292 1.18676,-4.09684 1.78493,-6.30255 0.598,-2.205131 1.18298,-4.427679 1.69382,-6.358103 0.25787,-0.974455 0.49695,-1.874903 0.71221,-2.672631 0.21672,-0.803167 0.40781,-1.496644 0.56789,-2.050836 0.68702,-2.378935 1.19291,-4.342449 1.90027,-6.436646 0.74751,-2.213061 1.6165,-4.231867 2.82418,-6.281787 0.29794,-0.504981 0.70289,-0.987129 1.18148,-1.431763 0.50027,-0.464778 1.07645,-0.88448 1.69087,-1.24841 1.34938,-0.799265 2.83773,-1.306938 4.2009,-1.520645 0.76471,-0.119887 1.48244,-0.147157 2.13548,-0.09562 0.70563,0.05568 1.32417,0.202156 1.85552,0.414003 0.017,0.0068 0.0338,0.01359 0.0506,0.02049 0.61059,0.250928 1.11318,0.594345 1.51809,1.006252 0.45345,0.461295 0.79476,1.018721 1.0331,1.65842 0.25924,0.696887 0.33265,1.406949 0.2838,2.100584 -0.0539,0.765716 -0.2592,1.543789 -0.57075,2.310512 -0.33006,0.812291 -0.78856,1.634454 -1.34705,2.449509 -0.55893,0.815706 -1.23393,1.647446 -2.01453,2.479452 -1.22753,1.308373 -2.8064,2.711783 -4.7166,4.066709 -0.26719,0.189514 -0.5374,0.375655 -0.81023,0.558162 -2.10435,1.40767 -4.38504,2.613015 -6.67695,3.490829 -2.27624,0.871745 -4.45685,1.399618 -6.44286,1.643834 -1.8948,0.233 -3.62621,0.207454 -5.05013,-0.03056 -0.67471,-0.11278 -1.27615,-0.27248 -1.78455,-0.471057 -0.4882,-0.190686 -0.88039,-0.413342 -1.16353,-0.654097 -0.13608,-0.11571 -0.24447,-0.233505 -0.32602,-0.351237 -0.0794,-0.114563 -0.13344,-0.229245 -0.16346,-0.34338 -0.0203,-0.07703 -0.0301,-0.155967 -0.0284,-0.237225 7.7e-4,-0.03649 0.004,-0.07389 0.009,-0.112215 0.0176,-0.11936 0.0605,-0.25107 0.1402,-0.394039 0.0783,-0.140319 0.17095,-0.260652 0.27868,-0.362297 0.10464,-0.09872 0.22621,-0.182381 0.36762,-0.249727 0.2738,-0.130384 0.62604,-0.201314 1.07305,-0.194628 0.42855,0.0064 0.93024,0.08394 1.5096,0.23583 0.5596,0.146713 1.18179,0.360154 1.86801,0.637107 1.32839,0.536127 2.85464,1.292817 4.57949,2.21956 1.67564,0.900298 3.46917,1.922953 5.40785,3.023758 1.90361,1.080913 3.69161,1.97552 5.33789,2.678327 1.64697,0.7031 3.14114,1.20957 4.4616,1.52112 1.34139,0.31648 2.4994,0.4312 3.46231,0.34949 0.49249,-0.0418 0.93485,-0.13511 1.32511,-0.27996 0.39936,-0.14822 0.74368,-0.35024 1.03055,-0.60521 0.12708,-0.1099 0.2513,-0.2384 0.35719,-0.37861 0.10929,-0.14471 0.20236,-0.30622 0.25824,-0.47837 0.029,-0.0893 0.0483,-0.18245 0.0542,-0.27825 0.006,-0.0985 -0.002,-0.19849 -0.0273,-0.29819 -0.026,-0.102579 -0.0692,-0.201275 -0.1293,-0.294745 -0.0543,-0.08437 -0.12124,-0.16282 -0.19942,-0.235385 -0.0108,-0.01004 -0.0219,-0.01999 -0.0331,-0.02983 -0.19023,-0.166343 -0.44487,-0.306247 -0.76119,-0.421281 -0.32858,-0.119494 -0.73165,-0.215026 -1.21459,-0.284216 -1.01475,-0.145382 -2.39585,-0.176311 -4.2039,-0.05908 -1.92387,0.12538 -4.12347,0.508893 -6.39278,1.082487 -2.35354,0.594888 -4.82273,1.404028 -7.23916,2.384298 -2.44073,0.99013 -4.86614,2.17033 -7.10295,3.51264 -0.99824,0.59905 -1.96476,1.2339 -2.88113,1.90218 -1.16062,0.84639 -2.19143,1.70913 -3.08966,2.5796 -0.87949,0.85219 -1.55558,1.6888 -2.06295,2.4999 -0.52581,0.84059 -0.87869,1.66712 -1.08199,2.4688 -0.2049,0.80804 -0.25854,1.5938 -0.1809,2.34466 0.0759,0.73378 0.27693,1.4326 0.58322,2.08646 0.56225,1.20025 1.4913,2.27202 2.68547,3.1303 1.02357,0.73567 2.29274,1.34624 3.6674,1.66295 0.0538,0.0124 0.10803,0.0239 0.16256,0.0348 0.5259,0.10428 1.08619,0.13564 1.67684,0.0891 0.59797,-0.0471 1.22156,-0.17369 1.86285,-0.38016 1.16832,-0.37616 2.38766,-1.01611 3.56291,-1.88861 1.0717,-0.79562 2.1005,-1.78173 2.95815,-2.88649 0.80443,-1.03621 1.46368,-2.18552 1.82637,-3.34645 0.1662,-0.53291 0.3772,-1.23524 0.62568,-2.08355 0.24457,-0.83494 0.52582,-1.81258 0.83585,-2.90752 0.60911,-2.15124 1.33007,-4.7581 2.09221,-7.59011 1.50743,-5.601404 3.15711,-12.013959 4.37499,-17.33637 0.60975,-2.664912 1.20358,-4.73579 1.82445,-6.369812 0.63388,-1.668272 1.28936,-2.862698 1.99829,-3.75066 0.36257,-0.454128 0.7395,-0.828439 1.13413,-1.143043 0.4032,-0.321441 0.82814,-0.583101 1.27823,-0.802734 0.93699,-0.457219 2.00306,-0.740692 3.19497,-0.977335 1.26973,-0.251994 2.56028,-0.307443 3.71453,-0.235149 1.3085,0.08195 2.43235,0.325202 3.28925,0.635854 0.23115,0.0838 0.44253,0.172261 0.63439,0.263748 0.21265,0.101406 0.40125,0.20676 0.56667,0.314002 0.34838,0.225856 0.58717,0.455546 0.73805,0.670715 0.0806,0.114903 0.13505,0.224103 0.16938,0.325968 0.0358,0.106167 0.0503,0.205954 0.0494,0.30022 -8.9e-4,0.09797 -0.0184,0.196186 -0.0518,0.29621 -0.0348,0.10427 -0.0887,0.21572 -0.16531,0.334388 -0.36815,0.590688 -0.82477,1.089222 -1.36299,1.516925 -0.51698,0.410827 -1.17102,0.805203 -2.00933,1.154483 -0.63083,0.262829 -1.42481,0.524656 -2.42982,0.744992 -1.16972,0.256446 -2.62546,0.448203 -4.46047,0.513907 -1.41813,0.04994 -3.14918,-0.143771 -5.14646,-0.545154 -1.89645,-0.381122 -3.94369,-0.93098 -6.05363,-1.569374 -2.04803,-0.619666 -4.07192,-1.297032 -5.99846,-1.946932 -1.86855,-0.630341 -3.62852,-1.229169 -5.06794,-1.660544 -1.43986,-0.431482 -3.25386,-0.918251 -5.21123,-1.315701 -1.9723,-0.400484 -4.08689,-0.709687 -6.11789,-0.782527 -1.02924,-0.03691 -2.04028,-0.01328 -3.00408,0.09082 -0.97632,0.105453 -1.91141,0.294237 -2.77181,0.590577 -0.87642,0.301861 -1.68151,0.717529 -2.37142,1.274514 -0.47484,0.383344 -0.88929,0.829041 -1.23152,1.340358 -0.16417,0.245278 -0.31251,0.506991 -0.44303,0.785763 -0.36758,0.786797 -0.58393,1.565185 -0.64674,2.329155 -0.0607,0.738299 0.0241,1.438398 0.22961,2.092873 0.1995,0.635412 0.50721,1.210646 0.88264,1.726533 0.36818,0.505931 0.80124,0.95453 1.26187,1.349228 0.90844,0.778399 1.94103,1.361418 2.83637,1.765811 0.45014,0.203312 0.86946,0.363222 1.22769,0.481544 0.18056,0.05964 0.34614,0.108897 0.49344,0.148108 0.1484,0.0395 0.27858,0.06891 0.38886,0.08888 0.89666,0.211147 1.74383,0.162638 2.45015,-0.02557 0.37238,-0.09922 0.70859,-0.237804 1.00099,-0.40098 0.30759,-0.171655 0.56727,-0.370731 0.77473,-0.583181 0.2223,-0.22766 0.38357,-0.469393 0.48449,-0.711615 0.11123,-0.266985 0.14629,-0.527075 0.11991,-0.768137 -0.0301,-0.274613 -0.13908,-0.516284 -0.28889,-0.721476 -0.18838,-0.258029 -0.44333,-0.463306 -0.69898,-0.625405 z"
         id="path9060-6"
         sodipodi:nodetypes="csszssssssssssssssssssszsc"
         inkscape:path-effect="#path-effect10301-9"
         inkscape:original-d="m 173.44599,82.277549 c 2.33725,1.687563 -0.60803,4.162446 -3.6767,3.267935 -1.52833,-0.445505 -8.60166,-3.359161 -5.8916,-8.954636 2.71006,-5.595474 14.20568,-2.985627 19.84722,-1.271491 5.64154,1.714136 16.31077,6.020437 22.6754,5.735878 6.36462,-0.284559 9.45812,-2.134215 10.81494,-4.808443 1.43731,-2.832869 -4.63409,-4.598907 -9.62545,-3.585283 -4.99135,1.013627 -7.28225,2.718654 -9.73003,13.329155 -2.44778,10.610501 -6.63842,25.601696 -8.00881,29.857466 -1.3704,4.25578 -7.21966,8.93853 -11.44338,7.90739 -4.73291,-1.15544 -9.56342,-6.57761 -3.05104,-12.83736 6.51238,-6.25975 18.71084,-10.955361 26.0478,-11.652337 7.33697,-0.696976 6.5952,1.229977 5.69687,2.044817 -2.11721,1.92043 -7.75388,0.65788 -15.35929,-3.686779 -7.60542,-4.344656 -13.87325,-8.028752 -15.50314,-5.307105 -1.62989,2.721647 5.85059,5.457211 15.42636,1.978734 9.57577,-3.478477 18.63,-12.503187 16.20064,-18.5607 -2.42936,-6.057514 -12.22808,-3.185785 -14.76786,1.200658 -2.53978,4.386442 -3.41848,8.377864 -4.69096,12.859975 -1.27247,4.482107 -4.50583,17.791557 -6.26658,21.930197 -1.76076,4.13863 -3.12232,8.19105 -8.65309,11.22138 -5.53077,3.03034 -12.28465,-1.72573 -9.85373,-4.32001 2.43091,-2.59428 7.63711,-3.46615 13.57429,-1.78024 3.29379,0.9353 24.88728,7.07299 30.49615,6.4688 5.60887,-0.60419 8.6808,-3.16593 9.54071,-6.0128 0.87992,-2.91315 -1.28967,-7.28565 -5.51291,-6.09224" />
      <path
         style="fill:#000000;fill-rule:nonzero;stroke:#ffffff;stroke-width:0.264602;stroke-linecap:butt;stroke-linejoin:round;stroke-miterlimit:4;stroke-dasharray:none;stroke-dashoffset:0;stroke-opacity:1;paint-order:stroke markers fill"
         d="m 219.63918,78.449616 c -1.66604,2.384937 -4.25741,6.087975 -6.31382,10.283635 -2.02092,4.123265 -3.4175,8.267245 -4.32366,11.719419 -0.0544,0.20718 -0.10669,0.41059 -0.15701,0.61011 -0.8594,3.40764 -0.98787,6.01422 -1.11707,7.45507 -0.12719,1.41835 -0.16259,1.70171 -0.13239,1.70523 0.0219,0.003 0.0808,-0.49996 0.39288,-1.6589 0.37138,-1.37908 1.28104,-3.8799 2.31854,-7.08111 0.0623,-0.19231 0.12639,-0.38843 0.19221,-0.58825 1.18008,-3.582901 2.49197,-7.085973 4.28827,-11.506809 1.48417,-3.652668 3.84417,-9.030357 4.85205,-10.938395 z"
         id="path12464-4"
         inkscape:path-effect="#path-effect12466-6"
         inkscape:original-d="M 219.63918,78.449616 C 209.32737,95.349347 207.59523,110.22308 207.59523,110.22308" />
      <path
         sodipodi:type="star"
         style="fill:#000000;fill-opacity:1;fill-rule:evenodd;stroke:#ffffff;stroke-width:1.00007;stroke-linecap:butt;stroke-linejoin:round;stroke-miterlimit:4;stroke-dasharray:none;stroke-dashoffset:0;stroke-opacity:1;paint-order:stroke markers fill"
         id="path12627-5"
         inkscape:flatsided="false"
         sodipodi:sides="5"
         sodipodi:cx="781.31506"
         sodipodi:cy="430.97455"
         sodipodi:r1="12.074959"
         sodipodi:r2="6.0374794"
         sodipodi:arg1="-0.56945297"
         sodipodi:arg2="0.058865564"
         inkscape:rounded="0"
         inkscape:randomized="0"
         transform="matrix(0.26458333,0,0,0.26458333,0.33951073,-0.44421997)"
         inkscape:transform-center-x="0.24931439"
         inkscape:transform-center-y="-0.058083359"
         d="m 791.48455,424.46408 -4.14246,6.86566 3.30734,7.30471 -7.80972,-1.8181 -5.92517,5.40275 -0.68422,-7.98932 -6.9693,-3.96562 7.38686,-3.11956 1.6179,-7.85365 5.24955,6.06132 z" />
    </g>
    <path
       id="path138193-3"
       style="display:inline;fill:none;stroke:#000000;stroke-width:0.264583px;stroke-linecap:butt;stroke-linejoin:miter;stroke-opacity:1"
       d="m 27.999889,32.91927 c 0,0 -4.556779,28.362181 4.64157,43.899131 9.19836,15.53694 27.35854,22.72419 27.35854,22.72419 0,0 18.160186,-7.18725 27.358536,-22.72419 9.19835,-15.53695 4.64158,-43.899131 4.64158,-43.899131 0,0 -3.92892,-1.530493 -32.000116,-12.480891 -31.2529,12.201168 -32.00011,12.480891 -32.00011,12.480891 z"
       sodipodi:nodetypes="cscsccc" />
  </g>
</svg>
