<?xml version="1.0" encoding="UTF-8" standalone="no"?>
<svg
   xmlns:osb="http://www.openswatchbook.org/uri/2009/osb"
   xmlns:dc="http://purl.org/dc/elements/1.1/"
   xmlns:cc="http://creativecommons.org/ns#"
   xmlns:rdf="http://www.w3.org/1999/02/22-rdf-syntax-ns#"
   xmlns:svg="http://www.w3.org/2000/svg"
   xmlns="http://www.w3.org/2000/svg"
   xmlns:xlink="http://www.w3.org/1999/xlink"
   xmlns:sodipodi="http://sodipodi.sourceforge.net/DTD/sodipodi-0.dtd"
   xmlns:inkscape="http://www.inkscape.org/namespaces/inkscape"
   width="210mm"
   height="297mm"
   viewBox="0 0 210 297"
   version="1.1"
   id="svg5749"
   inkscape:version="1.0.2 (e86c870879, 2021-01-15, custom)"
   sodipodi:docname="newlejeufat-raspberry-white-2.svg">
  <defs
     id="defs5743">
    <linearGradient
       id="linearGradient6615"
       osb:paint="solid">
      <stop
         style="stop-color:#000000;stop-opacity:1;"
         offset="0"
         id="stop6613" />
    </linearGradient>
    <inkscape:path-effect
       effect="spiro"
       id="path-effect1196"
       is_visible="true"
       lpeversion="1" />
    <inkscape:path-effect
       effect="spiro"
       id="path-effect1444"
       is_visible="true"
       lpeversion="1" />
    <inkscape:path-effect
       effect="powerstroke"
       id="path-effect903"
       is_visible="true"
       lpeversion="1"
       offset_points="1.2632129,0.44941 | 3.3004838,0.18428951 | 5.7299831,0.11947746 | 10.19182,0.33059041 | 14.413353,0.30582198 | 12.880922,0.095411947 | 16.390205,0.3517574 | 22.169192,0.32546835 | 18.700645,0.063716357 | 25.989558,0.075288647 | 29.907817,0.27720034"
       sort_points="true"
       interpolator_type="CentripetalCatmullRom"
       interpolator_beta="1"
       start_linecap_type="zerowidth"
       linejoin_type="bevel"
       miter_limit="10000"
       scale_width="6.5"
       end_linecap_type="butt" />
    <inkscape:path-effect
       effect="spiro"
       id="path-effect1480"
       is_visible="true"
       lpeversion="1" />
    <inkscape:path-effect
       effect="powerstroke"
       id="path-effect905"
       is_visible="true"
       lpeversion="1"
       offset_points="0.82182372,-0.2450566 | 4.4089822,-0.094780657 | 9.5682116,-0.38635677 | 14.261773,-0.34779646 | 11.868675,-0.12326139 | 18.263938,-0.14217784 | 21.453025,-0.1913613"
       sort_points="true"
       interpolator_type="CentripetalCatmullRom"
       interpolator_beta="1"
       start_linecap_type="butt"
       linejoin_type="round"
       miter_limit="4"
       scale_width="6.5"
       end_linecap_type="zerowidth" />
    <inkscape:path-effect
       effect="powerstroke"
       id="path-effect907"
       is_visible="true"
       lpeversion="1"
       offset_points="0.020672228,0.47230487"
       sort_points="true"
       interpolator_type="CentripetalCatmullRom"
       interpolator_beta="0.2"
       start_linecap_type="butt"
       linejoin_type="round"
       miter_limit="4"
       scale_width="6.1"
       end_linecap_type="zerowidth" />
    <inkscape:path-effect
       effect="spiro"
       id="path-effect1496"
       is_visible="true"
       lpeversion="1" />
    <inkscape:path-effect
       effect="powerstroke"
       id="path-effect911"
       is_visible="true"
       lpeversion="1"
       offset_points="4.6153214,0.55572139 | 8.2235974,0.15756687 | 15.121687,0.51805512 | 17.8324,0.25465357"
       sort_points="true"
       interpolator_type="CentripetalCatmullRom"
       interpolator_beta="1"
       start_linecap_type="zerowidth"
       linejoin_type="round"
       miter_limit="4"
       scale_width="3.9"
       end_linecap_type="zerowidth" />
    <clipPath
       clipPathUnits="userSpaceOnUse"
       id="clipPath6584">
      <use
         x="0"
         y="0"
         xlink:href="#rect6015"
         id="use6586"
         width="100%"
         height="100%"
         inkscape:label="Clone de Barre" />
    </clipPath>
    <mask
       maskUnits="userSpaceOnUse"
       id="mask1483">
      <use
         x="0"
         y="0"
         xlink:href="#g1213"
         id="use1485"
         width="100%"
         height="100%"
         inkscape:label="Clone de Masque de blason troué"
         transform="translate(263.50587)" />
    </mask>
  </defs>
  <sodipodi:namedview
     id="base"
     pagecolor="#ffffff"
     bordercolor="#666666"
     borderopacity="1.0"
     inkscape:pageopacity="0.0"
     inkscape:pageshadow="2"
     inkscape:zoom="0.97511217"
     inkscape:cx="463.08159"
     inkscape:cy="517.71445"
     inkscape:document-units="mm"
     inkscape:current-layer="layer1"
     inkscape:document-rotation="0"
     showgrid="false"
     inkscape:window-width="1896"
     inkscape:window-height="1132"
     inkscape:window-x="10"
     inkscape:window-y="32"
     inkscape:window-maximized="0" />
  <metadata
     id="metadata5746">
    <rdf:RDF>
      <cc:Work
         rdf:about="">
        <dc:format>image/svg+xml</dc:format>
        <dc:type
           rdf:resource="http://purl.org/dc/dcmitype/StillImage" />
        <dc:title></dc:title>
      </cc:Work>
    </rdf:RDF>
  </metadata>
  <g
     inkscape:label="Layer source des dessins"
     id="layer1"
     style="display:inline"
     transform="translate(263.50587)">
    <rect
       style="fill:#b3b3b3;fill-opacity:1;fill-rule:evenodd;stroke-width:0.688999"
       id="rect4931"
       width="200.69188"
       height="283.47522"
       x="-258.91687"
       y="6.3177905"
       inkscape:label="Fond gris" />
    <rect
       style="display:inline;fill:#ff0066;fill-opacity:1"
       id="rect6012"
       width="151.35985"
       height="215.19618"
       x="29.320076"
       y="40.901909"
       ry="0"
       inkscape:label="Fond" />
    <g
       id="g1255"
       inkscape:label="ZirkelPlusDevise Unset"
       style="display:inline;fill-rule:nonzero;stroke:none;stroke-width:1.3;stroke-miterlimit:4;stroke-dasharray:none;stroke-opacity:1"
       transform="translate(-2.1612952,-5.9509413)">
      <g
         id="g221"
         transform="translate(1.2860323,5.538068)"
         inkscape:label="Zirkel"
         style="fill-rule:nonzero;stroke:none;stroke-width:1.3;stroke-miterlimit:4;stroke-dasharray:none;stroke-opacity:1">
        <path
           style="fill-rule:nonzero;stroke:none;stroke-width:1.3;stroke-linecap:butt;stroke-linejoin:miter;stroke-miterlimit:4;stroke-dasharray:none;stroke-opacity:1"
           d="m 68.546374,117.14416 c -1.037008,-1.21105 -2.37987,-3.44241 -3.002254,-6.47894 -0.44451,-2.16871 -0.447397,-4.38281 -0.02526,-6.50416 0.216581,-1.08839 0.535216,-2.11663 0.903021,-3.08674 0.330018,-0.87045 0.725474,-1.746723 1.199822,-2.606693 0.935275,-1.695607 2.193066,-3.352606 3.827819,-4.689606 1.996687,-1.785156 4.640771,-3.239977 7.777701,-3.788746 0.907233,-0.158518 1.831017,-0.236561 2.759423,-0.229627 2.178168,0.01627 4.365733,0.370882 6.488881,0.976586 2.99375,0.90389 5.852494,2.257571 8.696377,3.892935 2.757474,1.585675 5.37608,3.359003 8.19203,5.264949 2.55211,1.727372 5.39537,3.642442 8.32294,5.287212 1.2964,0.72835 2.65065,1.42797 4.05847,2.05967 1.57055,0.70472 3.25071,1.34996 5.03474,1.86029 2.95651,0.87657 6.41321,1.47558 10.02815,1.16403 3.34524,-0.28851 6.83416,-1.38328 9.77247,-3.54638 1.89404,-1.42328 3.47686,-3.2716 4.60285,-5.36326 1.14624,-2.129245 1.81707,-4.506897 1.86587,-6.940849 0.11051,-2.616 -0.51479,-5.111426 -1.66748,-7.167815 -0.24105,-0.430031 -0.50277,-0.836539 -0.78057,-1.218114 -1.23588,-1.697554 -2.87501,-2.97521 -4.65494,-3.773993 -2.25277,-0.99687 -4.58019,-1.175516 -6.64982,-0.974413 -1.99228,0.193822 -3.84319,0.750747 -5.45805,1.288769 -0.24129,0.08039 -0.47939,0.161285 -0.71077,0.241306 -2.07034,0.785936 -3.92646,1.870847 -5.51141,3.043274 -1.71023,1.265098 -3.28166,2.762122 -4.63678,4.430963 -1.44159,1.866701 -2.70371,3.989599 -3.71963,6.38322 -1.33582,3.147327 -2.24566,6.554652 -2.74828,10.090142 -0.36947,2.10516 -0.54578,4.23405 -0.62681,6.36602 -0.35956,6.70547 -0.92551,18.07768 -1.28507,24.78315 -0.67895,12.8805 -1.37213,25.79327 -2.38517,38.63905 -0.0851,2.62716 -0.17747,5.31425 -0.5834,7.88026 -0.39259,2.48169 -1.09151,4.94203 -2.43672,7.14928 -0.58484,1.09832 -1.36539,2.15633 -2.34856,3.04885 -0.37963,0.34463 -0.7892,0.66421 -1.22751,0.94983 -0.63532,0.41402 -1.33015,0.75652 -2.073534,1.00513 -1.192757,0.39881 -2.501825,0.5353 -3.781406,0.37094 -1.233294,-0.15841 -2.40439,-0.59189 -3.390306,-1.29564 -0.973156,-0.82612 -1.664814,-1.9136 -2.084016,-3.04313 -0.412699,-1.11073 -0.579749,-2.27888 -0.623886,-3.39074 -0.02449,-0.37928 -0.02398,-0.76042 -5.11e-4,-1.14152 0.04583,-0.74418 0.182376,-1.49786 0.406722,-2.24326 0.336663,-1.11859 0.869405,-2.21178 1.573417,-3.19836 0.965335,-1.42016 2.270554,-2.69826 3.860734,-3.53648 1.576767,-0.83187 3.473138,-1.22813 5.333446,-0.92625 1.31579,0.24968 2.55513,0.81732 3.72854,1.59981 1.14842,0.76582 2.20675,1.71922 3.18845,2.73298 0.0209,0.0216 0.0418,0.0432 0.0626,0.0649 0.96618,1.00323 1.9269,2.11981 2.96572,3.22681 0.98575,1.05044 2.06218,2.10889 3.3023,3.01016 2.40296,1.74933 5.33189,2.81975 8.35345,3.00226 3.21945,0.19447 6.33101,-0.62372 8.87712,-2.09663 2.86311,-1.65631 4.79538,-3.98323 5.91769,-6.1006 0.13875,-0.26176 0.26896,-0.52617 0.39064,-0.79269 1.83439,-4.01776 1.43139,-7.67983 1.14479,-9.36104 l -3.55236,0.6056 c 0.22604,1.32589 0.4089,4.14063 -0.91502,7.29159 -0.0877,0.20883 -0.18142,0.41718 -0.28105,0.6248 -0.80076,1.66869 -2.14371,3.66031 -4.30873,5.2406 -1.92795,1.40725 -4.45113,2.41773 -7.24876,2.54117 -2.62686,0.1159 -5.34385,-0.56987 -7.65769,-2.01732 -1.19793,-0.75103 -2.26588,-1.68431 -3.27196,-2.67875 -1.01582,-1.00406 -2.06964,-2.17793 -3.00867,-3.17102 2.1e-4,2.2e-4 -0.0636,-0.0672 -0.0634,-0.067 -0.98808,-1.04173 -2.05114,-2.09335 -3.21604,-2.99669 -1.18836,-0.92153 -2.51339,-1.71336 -4.0181,-2.18371 -2.112289,-0.71192 -4.483886,-0.75929 -6.714526,-0.12516 -2.249693,0.63905 -4.299728,1.94154 -5.88331,3.68453 -1.101915,1.25551 -1.973955,2.72892 -2.529183,4.31947 -0.370583,1.0616 -0.600251,2.17631 -0.6611,3.31036 -0.03116,0.58068 -0.01747,1.168 0.04486,1.75641 0.211663,1.73147 0.92524,3.37266 2.003496,4.7153 1.093398,1.36199 2.503005,2.34045 3.978395,2.9216 1.370695,0.65004 2.831937,0.91343 4.226264,0.91008 1.451469,-0.003 2.864308,-0.29458 4.132964,-0.77753 0.790541,-0.30099 1.533691,-0.67274 2.229781,-1.0878 0.48085,-0.28672 0.94326,-0.5963 1.38576,-0.92328 1.1412,-0.84326 2.17601,-1.82139 3.07279,-2.86483 1.75242,-2.26745 2.88151,-4.84486 3.67815,-7.46652 0.81757,-2.69055 1.30649,-5.50861 1.71709,-8.1272 1.42239,-12.89858 2.43986,-25.80531 3.25495,-38.72424 0.52187,-8.27159 0.98644,-16.58459 1.45411,-24.78558 0.15383,-2.11622 0.21708,-4.15209 0.34393,-6.08094 0.3275,-3.21992 0.98521,-6.31803 2.00028,-9.191046 0.76846,-2.174997 1.67684,-4.178738 2.72929,-5.99035 0.91001,-1.672058 1.99222,-3.296147 3.30652,-4.707142 1.22471,-1.314812 2.75057,-2.550825 4.6279,-3.400865 0.20304,-0.09998 0.41425,-0.193839 0.6336,-0.280172 1.50711,-0.593159 3.25368,-0.768904 4.99513,-0.492651 1.78587,0.283585 3.49798,1.032122 4.9257,2.123966 1.12264,0.846311 2.10063,1.926375 2.90229,3.131083 0.18175,0.273125 0.35665,0.558601 0.52172,0.856357 0.78841,1.422137 1.3663,3.150418 1.48608,5.068423 0.0573,1.769184 -0.32361,3.594141 -1.115,5.321389 -0.77703,1.695908 -1.93256,3.256428 -3.37396,4.506818 -2.23243,1.98243 -5.09898,3.23584 -8.08155,3.75203 -3.22241,0.55744 -6.45103,0.25697 -9.30901,-0.46872 -1.70314,-0.45094 -3.31691,-1.0436 -4.83564,-1.71252 -1.36074,-0.59934 -2.67619,-1.26918 -3.9436,-1.97444 -2.87369,-1.59909 -5.65828,-3.47199 -8.21109,-5.215011 -2.8021,-1.913228 -5.43858,-3.735433 -8.232132,-5.399733 -2.880307,-1.715987 -5.826418,-3.199013 -8.956238,-4.246626 -2.195572,-0.770347 -4.518459,-1.349773 -6.897418,-1.617421 -1.016986,-0.114417 -2.0508,-0.196182 -3.099407,-0.223399 -3.555019,-0.09171 -7.284712,0.47134 -10.554576,2.263141 -2.592619,1.532967 -4.659659,3.696675 -6.05503,6.120375 -0.704969,1.224502 -1.234074,2.50672 -1.581132,3.802123 -0.386783,1.443671 -0.561221,2.981841 -0.491523,4.543381 0.134927,3.02295 1.168966,5.74702 2.56962,7.91086 1.959084,3.02655 4.333007,4.56418 5.6225,5.35914 z"
           id="path1442"
           sodipodi:nodetypes="cssscsssssssc"
           inkscape:original-d="m 68.546374,117.14416 c -1.227267,-6.35139 2.64743,-19.198809 1.419355,-25.551009 -1.22808,-6.352187 73.475271,16.260609 71.625921,13.891809 -7.5381,-9.655419 -14.02731,-39.099035 -0.5277,-21.67405 20.60252,26.59331 -15.80606,7.473511 -20.72784,7.393381 -4.92179,-0.0801 2.24011,8.944689 -5.59874,15.827379 -4.19515,3.68343 6.77803,-4.72533 -0.48537,6.22348 -3.97471,5.99149 -2.08334,44.67496 -4.18965,63.46601 -2.10632,18.79105 -15.025398,36.68039 -18.142118,19.72286 -0.7205,-3.92011 -13.016294,0.76587 -1.78237,-15.02007 3.39614,-4.77227 8.59961,-4.1386 10.896008,-4.01105 2.29642,0.12754 10.13055,7.94778 13.41293,10.86589 3.28237,2.91813 16.61409,-13.52871 22.54747,-14.51477"
           inkscape:path-effect="#path-effect1444;#path-effect903" />
        <path
           style="fill-rule:nonzero;stroke:none;stroke-width:1.3;stroke-linecap:butt;stroke-linejoin:miter;stroke-miterlimit:4;stroke-dasharray:none;stroke-opacity:1"
           d="m 96.99999,122.14583 c 2.822754,-0.51168 8.13109,-1.84905 13.85686,-5.66608 2.51216,-1.67472 5.0231,-3.77643 7.31346,-6.34619 1.11604,-1.25218 2.22779,-2.66734 3.27005,-4.25214 0.72606,-1.05729 1.53127,-2.32571 2.19893,-3.71569 0.57593,-1.199 1.07123,-2.531265 1.3336,-3.967205 0.29713,-1.281665 0.41755,-2.717152 0.17571,-4.166737 -0.23044,-1.382129 -0.79048,-2.7288 -1.69174,-3.818513 -0.43588,-0.523652 -0.94235,-0.979112 -1.495,-1.353832 -0.77535,-0.525716 -1.68844,-0.914517 -2.67508,-1.095607 -1.54943,-0.284377 -3.21642,-0.04259 -4.63805,0.710992 -1.24314,0.673298 -2.26926,1.718885 -3.01416,2.913392 -0.7562,1.211184 -1.23753,2.574866 -1.53941,3.932397 -0.39107,1.401108 -0.58374,2.85939 -0.6849,4.335073 -0.10649,1.55351 -0.11329,3.17384 -0.13239,4.7252 -0.43052,15.62295 -0.44655,27.05802 -1.17157,41.00416 -0.57387,11.03868 -1.52619,21.26487 -3.13255,31.16348 -0.93666,4.55559 -2.10977,8.51342 -3.83989,12.25862 -0.89768,1.94384 -1.969153,3.85781 -3.207989,5.64628 -0.877189,1.26637 -1.872403,2.51909 -2.994459,3.69627 -0.392431,0.41171 -0.79637,0.80968 -1.212612,1.1927 -1.882873,1.72765 -4.086042,3.13488 -6.442244,4.07437 -2.366181,0.94347 -4.983415,1.453 -7.668412,1.25887 -2.520557,-0.0387 -5.342973,-0.69181 -7.817716,-2.42728 -0.599475,-0.42048 -1.17505,-0.90363 -1.71182,-1.4494 -1.395732,-1.41912 -2.567417,-3.271 -3.209153,-5.43655 -0.500123,-1.65561 -0.665501,-3.40896 -0.508906,-5.1527 0.151393,-1.68583 0.603118,-3.35362 1.333157,-4.89729 1.433327,-3.0297 3.86823,-5.46764 6.658162,-7.03894 2.880378,-1.62193 6.070833,-2.31859 9.053416,-2.37738 0.832405,-0.0164 1.650121,0.0157 2.448021,0.0864 2.247828,0.19917 4.476543,0.7189 6.604486,1.51337 2.753506,1.05129 5.2515,2.54712 7.579199,4.21972 2.35553,1.69261 4.59044,3.60805 6.6843,5.40731 2.22396,1.911 4.3058,3.68898 6.51952,5.28573 2.33001,1.68063 4.62324,3.02226 7.0338,3.96249 2.75669,1.07494 5.59787,1.55068 8.28292,1.59245 0.2935,0.005 0.58804,0.004 0.88343,-0.002 3.14414,-0.0615 6.28475,-0.714 9.17787,-1.97955 3.1183,-1.36406 5.73744,-3.34446 7.78658,-5.51814 2.92512,-3.1029 4.39835,-6.2674 5.1026,-8.29329 -0.5317,2.05339 -1.66425,5.42723 -4.36517,8.922 -1.89368,2.45026 -4.46347,4.81892 -7.71448,6.55337 -3.02265,1.61262 -6.41772,2.55752 -9.8874,2.76597 -0.3257,0.0196 -0.651,0.0326 -0.97561,0.0391 -2.97038,0.0596 -6.14981,-0.42097 -9.2466,-1.62465 -2.689,-1.04491 -5.17182,-2.55506 -7.58591,-4.37346 -2.27903,-1.71666 -4.3956,-3.62798 -6.55066,-5.59041 -2.04922,-1.86612 -4.15836,-3.78382 -6.38128,-5.47407 -2.188305,-1.66392 -4.499554,-3.11833 -7.030967,-4.13415 -1.943203,-0.79795 -3.996201,-1.30126 -6.056514,-1.429 -0.729745,-0.0453 -1.47256,-0.0439 -2.221904,0.01 -2.706049,0.19489 -5.435361,1.08418 -7.718132,2.70336 -2.212143,1.56947 -3.890018,3.75993 -4.729467,6.1733 -0.421926,1.21396 -0.62529,2.47759 -0.623344,3.70593 0.002,1.27049 0.22279,2.47945 0.625743,3.57143 0.538424,1.42532 1.373573,2.66565 2.306252,3.69113 0.358533,0.3942 0.732857,0.76359 1.117956,1.10515 1.585979,1.40611 3.498358,2.47483 5.509696,3.02845 2.160398,0.43648 4.432768,0.30707 6.624377,-0.33182 2.177732,-0.63485 4.271081,-1.77339 6.035206,-3.33596 0.390912,-0.34521 0.76645,-0.71094 1.126032,-1.09637 1.032215,-1.10642 1.883272,-2.32429 2.58339,-3.58209 0.989039,-1.77686 1.704744,-3.68262 2.222743,-5.60037 0.995913,-3.68504 1.341034,-7.52775 1.793603,-12.02541 1.40137,-9.72569 2.21292,-19.77146 2.72422,-30.70494 0.59128,-12.64385 0.71145,-26.37848 1.18124,-40.90639 0.0733,-1.54378 0.17695,-3.31876 0.42528,-5.080494 0.2372,-1.682734 0.61905,-3.461692 1.29276,-5.21557 0.71689,-1.660056 1.72761,-3.283698 3.08277,-4.647092 1.33782,-1.346739 2.96474,-2.377466 4.73667,-2.91118 1.99674,-0.617257 4.05388,-0.546803 5.82347,-0.01611 1.1358,0.34063 2.15533,0.868833 3.0311,1.48583 0.62695,0.441693 1.21591,0.95855 1.74182,1.547172 1.08827,1.211274 1.88945,2.676735 2.37618,4.240734 0.5111,1.641865 0.66063,3.322381 0.57584,4.884648 -0.16225,1.725081 -0.60548,3.325721 -1.14945,4.745251 -0.6299,1.64378 -1.42459,3.11905 -2.14989,4.30814 -1.10791,1.74344 -2.29805,3.29844 -3.49949,4.67021 -2.46498,2.81446 -5.18459,5.10653 -7.90865,6.92464 -6.21265,4.14648 -11.99952,5.55477 -15.081226,6.1134 z"
           id="path1478"
           inkscape:path-effect="#path-effect1480;#path-effect905"
           inkscape:original-d="m 97.284102,123.71316 c 7.157308,-5.05749 18.308358,-11.92803 25.464868,-16.98633 7.1565,-5.0583 -0.0939,-12.747209 1.18191,-16.923459 1.27575,-4.17625 -5.08127,-2.12746 -9.70226,-2.37767 -4.621,-0.2502 -1.75531,36.882969 -7.45417,16.880199 -0.79307,-2.78367 -2.09567,48.11951 -4.10479,71.88948 -2.00912,23.76995 -7.143608,17.22222 -9.490358,22.54906 -2.34676,5.32685 -16.147208,-2.71191 -24.221417,-4.06847 -8.074206,-1.35655 15.437723,-10.8668 23.155977,-16.30081 7.718261,-5.434 18.455618,12.81618 27.682818,19.22367 9.22718,6.40747 21.14128,-10.28497 31.71133,-15.42803"
           sodipodi:nodetypes="csssssssssc" />
        <path
           style="fill-rule:nonzero;stroke:none;stroke-width:1.3;stroke-linecap:butt;stroke-linejoin:miter;stroke-miterlimit:4;stroke-dasharray:none;stroke-opacity:1"
           d="m 146.70932,111.96465 c -0.0159,0.19971 -0.0576,0.49974 -0.0956,1.19826 -0.26158,4.81089 -1.37985,47.49628 -1.65582,56.99554 1.23328,-9.4229 6.89537,-51.74587 7.39969,-56.5374 0.0732,-0.69571 0.0797,-0.99855 0.0956,-1.19826 z"
           id="path1486"
           inkscape:path-effect="#path-effect907"
           inkscape:original-d="m 149.58126,112.19372 -4.62333,57.96473" />
        <path
           style="fill-rule:nonzero;stroke:none;stroke-width:1.3;stroke-linecap:butt;stroke-linejoin:miter;stroke-miterlimit:4;stroke-dasharray:none;stroke-opacity:1"
           d="m 66.774603,132.56296 c 0.0055,-1.92374 0.544537,-5.09599 2.884561,-7.92595 1.638087,-1.98105 4.04893,-3.58902 6.867489,-4.1995 2.570143,-0.55668 5.3045,-0.23671 7.630671,0.87254 2.392795,1.14102 4.229461,3.04165 5.316512,5.11814 0.708408,1.33553 1.112012,2.75714 1.287779,4.13008 0.04351,0.33986 0.07307,0.67649 0.09009,1.00842 0.05917,1.15415 -0.03027,2.29023 -0.247511,3.36656 -0.602121,2.98172 -2.200905,5.73847 -4.349627,7.81894 -2.185586,2.11549 -5.093858,3.70027 -8.378406,4.41074 -3.010284,0.65096 -6.394784,0.58885 -9.85482,-0.40645 -0.708783,-0.20389 -1.422955,-0.44919 -2.130808,-0.74066 -0.835272,-0.34394 -1.672631,-0.75583 -2.486056,-1.24423 -1.374371,-0.82522 -2.686541,-1.87278 -3.792876,-3.17929 -1.005793,-1.21223 -1.830292,-2.6752 -2.286554,-4.30049 -0.427887,-1.52446 -0.515936,-3.1535 -0.191352,-4.7021 0.318611,-1.51928 1.028659,-2.91354 2.030293,-3.98197 1.022956,-1.09071 2.318882,-1.80739 3.623563,-2.07974 1.396548,-0.29101 2.766887,-0.0718 3.832604,0.46086 0.575106,0.28774 1.075364,0.67296 1.482197,1.10226 0.444632,0.4692 0.770324,0.98336 0.988015,1.487 0.06166,0.14299 0.116197,0.28783 0.164477,0.43393 0.151871,0.45961 0.239674,0.96678 0.265429,1.5163 0.03414,0.72833 -0.04231,1.49641 -0.195513,2.26809 -0.160329,0.80676 -0.39619,1.61198 -0.652925,2.42556 -0.292465,0.9268 -0.56834,1.73493 -0.821763,2.62866 -2.28903,6.73455 -2.737549,13.15491 -2.373745,18.36786 0.370964,5.31556 1.581587,9.45871 2.577164,11.98492 1.214115,3.08074 2.658522,4.71547 3.083484,5.34887 -0.266877,-0.98408 -0.461661,-2.60456 -1.183779,-5.92896 -0.549836,-2.53126 -1.368308,-6.55362 -1.46682,-11.54185 -0.09701,-4.91245 0.505978,-10.86635 2.740962,-17.04792 0.29999,-0.70509 0.708356,-1.6612 1.047532,-2.55787 0.324264,-0.85725 0.650477,-1.82392 0.885183,-2.85421 0.229555,-1.0082 0.371083,-2.10339 0.344745,-3.22329 -0.02001,-0.85072 -0.136901,-1.71575 -0.385442,-2.56677 -0.07912,-0.27093 -0.174492,-0.54567 -0.288547,-0.82174 -0.412608,-0.99956 -1.049757,-1.94843 -1.894609,-2.76359 -0.767617,-0.74064 -1.705584,-1.3684 -2.77147,-1.79689 -1.949071,-0.78325 -4.210365,-0.85574 -6.296049,-0.16058 -1.948536,0.64977 -3.650764,1.93793 -4.846606,3.58353 -1.171783,1.61289 -1.830729,3.51976 -2.001243,5.41548 -0.173753,1.93328 0.154968,3.8294 0.796963,5.50791 0.684783,1.7902 1.719603,3.33624 2.857909,4.60549 1.229962,1.39711 2.654732,2.50925 4.112445,3.39231 0.863977,0.52339 1.747045,0.97092 2.621728,1.35359 0.741373,0.32435 1.487021,0.60724 2.225156,0.85289 3.575538,1.1901 7.197446,1.60546 10.566928,1.26645 3.688731,-0.3713 7.298647,-1.67975 10.250352,-3.92422 2.900292,-2.20586 5.341257,-5.48907 6.311147,-9.46983 0.351702,-1.44383 0.502738,-2.97674 0.416681,-4.53712 -0.02475,-0.44877 -0.06931,-0.90432 -0.135523,-1.36436 -0.267219,-1.85654 -0.889125,-3.79108 -1.970505,-5.59503 -1.683291,-2.78338 -4.385539,-5.06873 -7.644531,-6.21305 -3.168253,-1.11245 -6.597675,-1.04646 -9.563732,0.0141 -3.249987,1.16203 -5.69286,3.40193 -7.157782,5.78429 -2.079058,3.3811 -2.127768,6.74219 -1.933461,8.60194 z"
           id="path1494"
           inkscape:path-effect="#path-effect1496;#path-effect911"
           inkscape:original-d="m 66.774603,132.56296 c 2.516308,5.53252 64.400627,-8.68813 24.499369,-7.161 -7.809498,0.29888 -16.588592,23.66047 -23.445789,21.9762 -4.739998,-1.16423 4.30539,-22.57816 3.132401,-18.58425 -4.142271,12.98856 -0.03302,0.97388 -1.421882,10.64821 -1.89295,13.0519 2.456227,34.26397 1.598269,35.11019"
           sodipodi:nodetypes="cssccc" />
        <path
           sodipodi:type="star"
           style="fill-rule:nonzero;stroke:none;stroke-width:1.3;stroke-miterlimit:4;stroke-dasharray:none;stroke-opacity:1"
           id="path1306"
           sodipodi:sides="5"
           sodipodi:cx="144.32272"
           sodipodi:cy="176.34985"
           sodipodi:r1="3.1001153"
           sodipodi:r2="1.1470426"
           sodipodi:arg1="0.061459461"
           sodipodi:arg2="0.68977799"
           inkscape:flatsided="false"
           inkscape:rounded="0"
           inkscape:randomized="0"
           inkscape:transform-center-x="0.23527589"
           inkscape:transform-center-y="-0.063210737"
           transform="rotate(108.26196,144.51403,176.08527)"
           d="m 147.41699,176.54027 -2.20945,0.53952 -0.10973,2.27172 -1.19588,-1.93458 -2.19444,0.59764 1.47036,-1.73517 -1.24652,-1.90235 2.10461,0.86219 1.42406,-1.77336 -0.16964,2.26803 z" />
      </g>
      <text
         xml:space="preserve"
         style="font-style:normal;font-variant:normal;font-weight:normal;font-stretch:normal;font-size:9.87778px;line-height:1.25;font-family:'Abril Fatface';-inkscape-font-specification:'Abril Fatface, Normal';font-variant-ligatures:normal;font-variant-caps:normal;font-variant-numeric:normal;font-variant-east-asian:normal;display:inline;fill-opacity:1;fill-rule:nonzero;stroke:none;stroke-width:1.3;stroke-miterlimit:4;stroke-dasharray:none;stroke-opacity:1"
         id="text237"
         inkscape:label="Devise"><textPath
           xlink:href="#path1194"
           id="textPath1198">SPIELEN WIR VIEL !</textPath></text>
      <path
         style="display:none;fill-rule:nonzero;stroke:none;stroke-width:1.3;stroke-linecap:butt;stroke-linejoin:miter;stroke-miterlimit:4;stroke-dasharray:none;stroke-opacity:1"
         d="m 70.945281,217.37642 c 16.799636,5.4861 35.108409,6.26778 52.314509,2.23351 17.2061,-4.03426 33.25928,-12.87268 45.8695,-25.25442 9.88992,-9.71074 17.66422,-21.56515 22.6293,-34.50567"
         id="path1194"
         inkscape:path-effect="#path-effect1196"
         inkscape:original-d="m 70.945281,217.37642 c 23.798469,-2.54847 74.386069,-20.47191 98.184009,-23.02091 23.79794,-2.54899 22.6293,-34.50567 22.6293,-34.50567"
         inkscape:label="DevisePath"
         sodipodi:nodetypes="csc" />
    </g>
    <use
       x="0"
       y="0"
       xlink:href="#g1255"
       id="use6580"
       width="100%"
       height="100%"
       inkscape:label="Clone de ZirkelPlusDevise Blanc"
       style="display:inline;fill:#000000" />
    <rect
       style="display:inline;fill:#ffffff;fill-opacity:1"
       id="rect6015"
       width="270.4509"
       height="75.874634"
       x="-193.47823"
       y="134.35272"
       ry="0"
       inkscape:label="Barre"
       transform="rotate(-53.943855)" />
    <use
       x="0"
       y="0"
       xlink:href="#g1255"
       id="use6017"
       width="100%"
       height="100%"
       inkscape:label="Clone de ZirkelPlusDevise Noir clippé sur Barre"
       style="display:inline;fill:#000000;fill-opacity:1"
       clip-path="url(#clipPath6584)" />
  </g>
  <g
     id="layer2"
     inkscape:label="Layer source du blason simple"
     style="display:none"
     transform="translate(263.50587)">
    <rect
       style="display:inline;fill:none;fill-opacity:1;stroke:#000000;stroke-width:0.202147;stroke-opacity:1"
       id="rect6611"
       width="126.80979"
       height="161.24673"
       x="41.595104"
       y="71.793594"
       inkscape:label="Cadre"
       ry="0" />
    <path
       style="display:inline;fill:none;stroke:#000000;stroke-width:0.264583px;stroke-linecap:butt;stroke-linejoin:miter;stroke-opacity:1"
       d="M 105,71.793594 V 233.04033"
       id="path6689"
       inkscape:label="Milieu Horizontal"
       sodipodi:nodetypes="cc" />
    <path
       style="display:inline;fill-opacity:1;stroke:#000000;stroke-width:0.264583px;stroke-linecap:butt;stroke-linejoin:miter;stroke-opacity:1"
       d="m 101.80755,71.793594 c 0,0 42.87388,-0.607001 64.34494,-7.361452 C 213.25454,261.23866 110.31284,213.59126 105,249.33138"
       id="path6693"
       sodipodi:nodetypes="ccc"
       inkscape:label="Blason Droite" />
    <use
       x="0"
       y="0"
       xlink:href="#path6693"
       id="use6695"
       width="100%"
       height="100%"
       inkscape:label="Blason Gauche (clone du Droite)"
       transform="matrix(-1,0,0,1,210,0)"
       style="display:inline" />
  </g>
  <g
     id="layer4"
     inkscape:label="Layer source du blason troué"
     style="display:none"
     transform="translate(263.50587)">
    <g
       id="g1213"
       inkscape:label="Masque de blason troué"
       style="display:inline;opacity:1">
      <rect
         style="display:inline;opacity:1;fill:#000000;fill-opacity:1;fill-rule:evenodd;stroke-width:0.66942;stroke-miterlimit:4;stroke-dasharray:none"
         id="rect1475"
         width="259.54822"
         height="319.08978"
         x="-24.774136"
         y="-11.04489"
         inkscape:label="Cacheur de reste" />
      <use
         x="0"
         y="0"
         xlink:href="#path6693"
         id="use1207"
         width="100%"
         height="100%"
         inkscape:label="Clone de Blason Droite"
         style="display:inline;fill:#ffffff" />
      <use
         x="0"
         y="0"
         xlink:href="#use6695"
         id="use1209"
         width="100%"
         height="100%"
         inkscape:label="Clone de Blason Gauche"
         style="display:inline;fill:#ffffff" />
      <circle
         style="display:inline;opacity:1;fill:#000000;fill-opacity:1;fill-rule:evenodd;stroke:none;stroke-width:0.689;stroke-miterlimit:4;stroke-dasharray:none"
         id="circle1211"
         cx="38.690002"
         cy="193.91553"
         r="19.524176"
         inkscape:label="Petit Trou" />
    </g>
  </g>
  <g
     id="layer3"
     inkscape:label="Layer final"
     style="display:inline"
     inkscape:groupmode="layer">
    <use
       x="0"
       y="0"
       xlink:href="#layer1"
       id="use6697"
       inkscape:label="Clone de Layer source des dessins maské avec blason troué"
       style="display:inline"
       width="100%"
       height="100%"
       clip-path="none"
       mask="url(#mask1483)"
       transform="translate(-263.50587)" />
  </g>
</svg>
