<?xml version="1.0" encoding="UTF-8" standalone="no"?>
<svg
   width="210mm"
   height="297mm"
   viewBox="0 0 210 297"
   version="1.1"
   id="svg5749"
   inkscape:version="1.1 (c4e8f9ed74, 2021-05-24)"
   sodipodi:docname="newlejeufat-traced-poker-inversé.svg"
   inkscape:export-filename="/home/rno/SociétéDuJeu/couleurs/traced/png/poker-inversé.png"
   inkscape:export-xdpi="144.92"
   inkscape:export-ydpi="144.92"
   xmlns:inkscape="http://www.inkscape.org/namespaces/inkscape"
   xmlns:sodipodi="http://sodipodi.sourceforge.net/DTD/sodipodi-0.dtd"
   xmlns:xlink="http://www.w3.org/1999/xlink"
   xmlns="http://www.w3.org/2000/svg"
   xmlns:svg="http://www.w3.org/2000/svg"
   xmlns:rdf="http://www.w3.org/1999/02/22-rdf-syntax-ns#"
   xmlns:cc="http://creativecommons.org/ns#"
   xmlns:dc="http://purl.org/dc/elements/1.1/">
  <defs
     id="defs5743">
    <linearGradient
       id="linearGradient889"
       inkscape:swatch="solid">
      <stop
         style="stop-color:#000000;stop-opacity:1;"
         offset="0"
         id="stop887" />
    </linearGradient>
    <linearGradient
       id="linearGradient865"
       inkscape:swatch="solid">
      <stop
         style="stop-color:#000000;stop-opacity:1;"
         offset="0"
         id="stop863" />
    </linearGradient>
    <linearGradient
       id="linearGradient6615"
       inkscape:swatch="solid">
      <stop
         style="stop-color:#000000;stop-opacity:1;"
         offset="0"
         id="stop6613" />
    </linearGradient>
    <inkscape:path-effect
       effect="spiro"
       id="path-effect1196"
       is_visible="true"
       lpeversion="1" />
    <inkscape:path-effect
       effect="spiro"
       id="path-effect1444"
       is_visible="true"
       lpeversion="1" />
    <inkscape:path-effect
       effect="powerstroke"
       id="path-effect903"
       is_visible="true"
       lpeversion="1"
       offset_points="1.2632129,0.44941 | 3.3004838,0.18428951 | 5.7299831,0.11947746 | 10.19182,0.33059041 | 14.413353,0.30582198 | 12.880922,0.095411947 | 16.390205,0.3517574 | 22.169192,0.32546835 | 18.700645,0.063716357 | 25.989558,0.075288647 | 29.907817,0.27720034"
       sort_points="true"
       interpolator_type="CentripetalCatmullRom"
       interpolator_beta="1"
       start_linecap_type="zerowidth"
       linejoin_type="bevel"
       miter_limit="10000"
       scale_width="6.5"
       end_linecap_type="butt" />
    <inkscape:path-effect
       effect="spiro"
       id="path-effect1480"
       is_visible="true"
       lpeversion="1" />
    <inkscape:path-effect
       effect="powerstroke"
       id="path-effect905"
       is_visible="true"
       lpeversion="1"
       offset_points="0.82182372,-0.2450566 | 4.4089822,-0.094780657 | 9.5682116,-0.38635677 | 14.261773,-0.34779646 | 11.868675,-0.12326139 | 18.263938,-0.14217784 | 21.453025,-0.1913613"
       sort_points="true"
       interpolator_type="CentripetalCatmullRom"
       interpolator_beta="1"
       start_linecap_type="butt"
       linejoin_type="round"
       miter_limit="4"
       scale_width="6.5"
       end_linecap_type="zerowidth" />
    <inkscape:path-effect
       effect="powerstroke"
       id="path-effect907"
       is_visible="true"
       lpeversion="1"
       offset_points="0.020672228,0.47230487"
       sort_points="true"
       interpolator_type="CentripetalCatmullRom"
       interpolator_beta="0.2"
       start_linecap_type="butt"
       linejoin_type="round"
       miter_limit="4"
       scale_width="6.1"
       end_linecap_type="zerowidth" />
    <inkscape:path-effect
       effect="spiro"
       id="path-effect1496"
       is_visible="true"
       lpeversion="1" />
    <inkscape:path-effect
       effect="powerstroke"
       id="path-effect911"
       is_visible="true"
       lpeversion="1"
       offset_points="4.6153214,0.55572139 | 8.2235974,0.15756687 | 15.121687,0.51805512 | 17.8324,0.25465357"
       sort_points="true"
       interpolator_type="CentripetalCatmullRom"
       interpolator_beta="1"
       start_linecap_type="zerowidth"
       linejoin_type="round"
       miter_limit="4"
       scale_width="3.9"
       end_linecap_type="zerowidth" />
    <clipPath
       clipPathUnits="userSpaceOnUse"
       id="clipPath6584">
      <use
         x="0"
         y="0"
         xlink:href="#rect6015"
         id="use6586"
         width="100%"
         height="100%"
         inkscape:label="Clone de Barre" />
    </clipPath>
    <mask
       maskUnits="userSpaceOnUse"
       id="mask1483">
      <use
         x="0"
         y="0"
         xlink:href="#g1213"
         id="use1485"
         width="100%"
         height="100%"
         inkscape:label="Clone de Masque de blason troué"
         transform="translate(263.50624)" />
    </mask>
    <linearGradient
       inkscape:collect="always"
       xlink:href="#linearGradient889"
       id="linearGradient891"
       x1="56.260773"
       y1="154.45094"
       x2="163.67781"
       y2="154.45094"
       gradientUnits="userSpaceOnUse" />
    <inkscape:path-effect
       effect="offset"
       id="path-effect14763"
       is_visible="true"
       lpeversion="1"
       linejoin_type="round"
       unit="mm"
       offset="0.44837627"
       miter_limit="4"
       attempt_force_join="false"
       update_on_knot_move="true" />
    <inkscape:path-effect
       effect="spiro"
       id="path-effect8081"
       is_visible="true"
       lpeversion="1" />
    <inkscape:path-effect
       effect="powerstroke"
       id="path-effect12064"
       is_visible="true"
       lpeversion="1"
       offset_points="0,-3.1911645 | 0.99791016,-0.54464073"
       not_jump="false"
       sort_points="true"
       interpolator_type="CentripetalCatmullRom"
       interpolator_beta="0.2"
       start_linecap_type="round"
       linejoin_type="round"
       miter_limit="4"
       scale_width="1"
       end_linecap_type="round" />
    <inkscape:path-effect
       effect="spiro"
       id="path-effect8073"
       is_visible="true"
       lpeversion="1" />
    <inkscape:path-effect
       effect="powerstroke"
       id="path-effect9637"
       is_visible="true"
       lpeversion="1"
       offset_points="3.9476924,2.615 | 13.010548,2 | 10.59744,2 | 0,0.48867602 | 77.211198,2 | 83.303537,2 | 7.6808571,2.9736201 | 63.440411,1.4010426 | 65.500215,2.5 | 69.004568,2.5 | 72.806635,3 | 71.307402,2.5 | 17.648128,2 | 20.20689,2 | 25.242199,2 | 58.564561,0.61294281 | 54.110678,2.6000999 | 42.673304,0.80671667 | 39.941983,2.1023126 | 34.439186,0.58397024 | 29.577082,0.76272042 | 27.468552,2 | 49.82162,0.69002827 | 88.905045,2 | 93.152962,0.43560218 | 100.32885,2.1272387 | 102,0.48782176 | 85.171178,2"
       not_jump="false"
       sort_points="true"
       interpolator_type="CentripetalCatmullRom"
       interpolator_beta="0.2"
       start_linecap_type="round"
       linejoin_type="round"
       miter_limit="4"
       scale_width="1"
       end_linecap_type="round" />
    <clipPath
       clipPathUnits="userSpaceOnUse"
       id="clipPath1112">
      <use
         x="0"
         y="0"
         xlink:href="#rect6015"
         id="use1114"
         width="100%"
         height="100%"
         inkscape:label="CloneBarreGoldée" />
    </clipPath>
  </defs>
  <sodipodi:namedview
     id="base"
     pagecolor="#ffffff"
     bordercolor="#666666"
     borderopacity="1.0"
     inkscape:pageopacity="0.0"
     inkscape:pageshadow="2"
     inkscape:zoom="0.38974818"
     inkscape:cx="906.99591"
     inkscape:cy="881.33831"
     inkscape:document-units="mm"
     inkscape:current-layer="layer1"
     inkscape:document-rotation="0"
     showgrid="false"
     inkscape:window-width="1896"
     inkscape:window-height="1110"
     inkscape:window-x="10"
     inkscape:window-y="54"
     inkscape:window-maximized="1"
     inkscape:pagecheckerboard="1"
     inkscape:lockguides="true"
     showguides="false" />
  <metadata
     id="metadata5746">
    <rdf:RDF>
      <cc:Work
         rdf:about="">
        <dc:format>image/svg+xml</dc:format>
        <dc:type
           rdf:resource="http://purl.org/dc/dcmitype/StillImage" />
      </cc:Work>
    </rdf:RDF>
  </metadata>
  <g
     inkscape:label="Layer source des dessins"
     id="layer1"
     style="display:inline"
     transform="translate(263.50624)">
    <g
       id="g5202"
       inkscape:label="TracedZirkel"
       transform="matrix(0.7825936,0.01060597,-0.01060684,0.78259623,-118.87161,130.9853)">
      <path
         style="display:inline;fill-opacity:1;fill-rule:nonzero"
         d="m 327.69219,55.34313 c 0,0 -0.29597,-0.207892 0,0 1.35919,0.954702 3.05715,2.592847 4.25398,5.014129 0.87854,1.777369 1.47114,3.947632 1.38781,6.275011 -0.16494,2.018953 -0.82108,4.124615 -2.00097,6.070068 -1.10094,1.815762 -2.57964,3.372442 -4.24971,4.613799 -1.66347,1.34041 -3.53417,2.33486 -5.46224,3.048704 -1.85981,0.688569 -3.75899,1.111257 -5.57417,1.340962 -0.22286,0.0282 -0.44611,0.05364 -0.66961,0.07633 -6.26231,0.684697 -12.75779,-0.738184 -18.49141,-3.68373 -5.74751,-2.952509 -10.71688,-7.368699 -14.75959,-12.479047 -1.70521,-2.179034 -3.30735,-4.531771 -5.0196,-6.850519 -1.56989,-2.130378 -3.21017,-4.208886 -5.03063,-6.140617 -0.8746,-0.928059 -1.79169,-1.81703 -2.76013,-2.655406 -3.1337,-2.713117 -6.78943,-4.853573 -10.8099,-5.859602 -2.8497,-0.741115 -5.74669,-0.867931 -8.52293,-0.562028 -2.82624,0.311412 -5.56671,1.074823 -8.0901,2.139916 -2.78823,1.183934 -5.3959,2.755926 -7.69334,4.656438 -1.61566,1.336519 -3.03234,2.804441 -4.23781,4.36921 -2.23847,2.91711 -3.89864,6.358041 -4.49263,10.038886 -0.28836,1.78713 -0.32989,3.713098 -0.0282,5.663366 0.27412,1.772075 0.84476,3.640028 1.83797,5.421521 0.0109,0.01964 0.022,0.03927 0.033,0.05891 0.93287,1.65576 2.3073,3.371446 4.19943,4.734085 1.69954,1.223939 3.77345,2.119679 6.03497,2.40732 1.58042,0.20101 3.16035,0.09237 4.67016,-0.248269 1.51585,-0.342004 2.95973,-0.917305 4.27297,-1.648592 2.72692,-1.518514 4.89135,-3.668327 6.57796,-5.756164 2.07961,-2.574321 3.68412,-5.348137 4.99723,-7.954587 0.4194,-0.832476 0.81535,-1.660892 1.18943,-2.470103 0.91755,-1.984827 1.81276,-4.097215 2.57539,-5.873611 7.25496,-16.898992 14.21469,-31.297105 20.70749,-46.27795 6.24014,-14.3978684 11.95925,-29.274746 19.59094,-46.270583 0.26826,-0.597404 0.5503,-1.221879 0.83867,-1.839327 0.38273,-0.819475 0.79613,-1.66881 1.24393,-2.503156 0.70287,-1.309597 1.50875,-2.617795 2.48233,-3.813269 0.36683,-0.450437 0.74926,-0.871746 1.1541,-1.233258 0.38701,-0.345593 0.78123,-0.624654 1.19064,-0.826477 0.59359,-0.292619 1.28472,-0.448683 2.03838,-0.45858 0.75122,-0.0099 1.5334,0.12658 2.27607,0.387934 1.55552,0.547405 2.91054,1.582187 3.90818,2.841749 1.11736,1.410717 1.76369,3.049313 2.06639,4.580149 0.10085,0.510038 0.16576,1.013377 0.20351,1.502948 0.1326,1.719771 -0.0789,3.420225 -0.39452,4.927119 -0.55639,2.685244 -1.52638,5.201818 -2.67029,7.471384 -1.89105,3.685282 -4.54432,7.00853 -7.81422,10.064965 -0.2141,0.200124 -0.42963,0.398039 -0.64642,0.593771 -3.56666,3.2201847 -7.60502,5.9650305 -11.51901,8.3140915 -8.20122,4.908387 -17.44494,9.1712039 -27.67907,12.2768202 -4.76282,1.4598103 -9.34983,2.5606733 -15.00049,3.9252403 -3.4661,0.837024 -7.30084,1.777714 -11.06279,2.8766 -1.69519,0.550819 -3.64774,1.194764 -5.53831,1.980535 -1.18834,0.488268 -2.4247,1.072283 -3.56282,1.812369 -1.10614,0.719289 -2.1382,1.597638 -2.95772,2.705106 -0.72108,0.978596 -1.28012,2.141366 -1.44632,3.4075 -0.16039,1.217255 0.057,2.477277 0.61068,3.56694 0.2485,0.489009 0.56231,0.939236 0.92493,1.338906 0.45657,0.503231 1.00594,0.958118 1.63799,1.316571 1.07553,0.609944 2.39266,0.939501 3.75057,0.825621 1.32678,-0.111293 2.66422,-0.644986 3.74229,-1.575295 0.68652,-0.6172 1.20777,-1.336255 1.63216,-2.047057 0.4231,-0.708642 0.77887,-1.461729 1.08368,-2.094432 3.76541,-9.404841 8.42638,-18.5042661 12.81838,-26.88855533 1.31801,-2.40403327 2.51846,-4.67979727 3.27978,-7.19591407 0.0497,-0.164349 0.0971,-0.328287 0.14211,-0.491891 0.26769,-1.0973727 0.30958,-2.0987529 0.20313,-3.0488066 -0.0483,-0.648151 -0.1638,-1.309221 -0.35738,-1.953962 -0.18198,-0.606109 -0.44529,-1.238395 -0.81984,-1.839194 -0.25862,-0.317524 -0.57669,-0.672126 -0.92182,-1.003323 -0.14908,-0.143065 -0.31248,-0.284523 -0.49114,-0.418802 -0.48074,-0.361518 -1.081,-0.673292 -1.76431,-0.808607 -0.55855,-0.127712 -1.1326,-0.119794 -1.6902,-0.0078 -0.53468,0.107426 -1.0552,0.31083 -1.53062,0.582149 -0.45988,0.262552 -0.87746,0.581662 -1.26574,0.932257 -0.38114,0.344147 -0.73334,0.718007 -1.0681,1.096218 -1.78369,1.990885 -3.19781,4.2692023 -4.51746,6.5520287 -0.60299,1.0426015 -1.19514,2.104353 -1.69674,3.2049741 -0.51001,1.1190726 -0.9224,2.2698007 -1.15876,3.47283747 -0.24268,1.17067536 -0.31278,2.35364193 -0.11197,3.49272483 0.10777,0.6108535 0.29482,1.1985112 0.5529,1.7377021 0.17591,0.3675335 0.38442,0.7118224 0.62339,1.0275485 0.13719,0.1812521 0.28452,0.3550802 0.44228,0.5201499 0.56046,0.5719343 1.21315,0.9992479 1.87824,1.3314041 0.69188,0.3455309 1.42044,0.5992563 2.10561,0.8010157 2.81615,0.556043 5.72144,0.3554961 8.40358,-0.4514086 2.75474,-0.8287445 5.32003,-2.3097488 7.38059,-4.3453892 2.27039,-2.1022434 3.98155,-4.7951608 4.98754,-7.7445003 0.98819,-2.8965447 1.3084,-6.0531133 0.93313,-9.2005473 -0.016,-0.144006 -0.0344,-0.289321 -0.0556,-0.435737 -0.16886,-1.170836 -0.51145,-2.387615 -1.09353,-3.548921 -0.65541,-1.309078 -1.61541,-2.526659 -2.85728,-3.421594 -1.34914,-0.999758 -2.90798,-1.498029 -4.36689,-1.701777 -1.44328,-0.200872 -2.87981,-0.132494 -4.22254,-0.01025 -1.0799,0.06929 -2.16002,0.194984 -3.22966,0.378818 -0.80514,0.138375 -1.62149,0.319583 -2.43989,0.553398 -1.70667,0.488471 -3.37087,1.195406 -5.05968,1.742947 -0.82727,0.268204 -1.66297,0.496205 -2.5005,0.639149 -0.8397,0.143313 -1.66562,0.198376 -2.4754,0.130286 -2.00803,-0.15605 -3.85407,-1.080259 -5.171,-2.390169 -1.45297,-1.445059 -2.24088,-3.298049 -2.46833,-5.014824 -0.2107,-1.362772 -0.0819,-2.698671 0.24568,-3.901699 0.0475,-0.174465 0.0994,-0.345954 0.15508,-0.514239 0.51533,-1.555957 1.3644,-2.853322 2.29002,-3.833029 1.28825,-1.247939 2.90642,-2.144556 4.52769,-2.91282 2.36598,-1.320242 5.15301,-2.356781 8.31209,-2.925486 2.76841,-0.498 5.78546,-0.624441 8.90349,-0.257087 3.18272,0.390417 6.42725,1.24153 9.84859,2.47794 2.57185,0.926476 5.05555,1.994526 7.42679,3.223509 5.43012,2.848807 10.8054,6.879692 15.37831,10.100168 -1.2e-4,-8.9e-5 0.06,0.04228 0.0599,0.04218 4.5722,3.218284 9.11678,6.15576 14.18209,8.147181 4.49741,1.773902 9.20245,2.676104 13.79777,2.807036 4.83324,0.137712 9.56318,-0.574742 13.93691,-2.034801 1.86044,-0.618204 3.65935,-1.373898 5.36142,-2.259067 1.13742,-0.591521 2.19382,-1.218442 3.16991,-1.868867 2.81077,-1.872975 5.1897,-4.095395 7.03219,-6.629247 1.54239,-2.10464 2.8984,-4.704537 3.69915,-7.742067 0.41318,-1.567365 0.7009,-3.34103 0.73656,-5.265109 0.0202,-1.087261 -0.0401,-2.219351 -0.20243,-3.379115 -0.33041,-2.315893 -1.14804,-5.009737 -2.80119,-7.506251 -1.4358,-2.168872 -3.51997,-4.176491 -6.17587,-5.417647 -1.51257,-0.718346 -3.12937,-1.142786 -4.76404,-1.311384 -1.6037,-0.165404 -3.22668,-0.08488 -4.79165,0.206478 -3.10063,0.577737 -5.92019,1.939381 -8.36755,3.597348 -0.4559,0.310454 -0.90117,0.632114 -1.33556,0.963952 -1.54265,1.178464 -3.05498,2.576575 -4.45111,4.209032 -2.35777,2.732252 -4.13309,5.837939 -5.6286,9.129389 -1.44835,3.187632 -2.61076,6.49444 -3.79335,9.740745 -2.77652,7.619997 -5.7923,15.119739 -8.86073,22.7892256 -6.10813,15.2819737 -11.86568,29.8552174 -18.3493,44.3396494 -3.5496,7.916743 -6.96057,14.943375 -11.3596,21.336857 -1.17944,1.708927 -2.34512,3.220392 -3.61316,4.511014 -1.39149,1.416263 -2.79903,2.453441 -4.28025,3.144875 -0.579,0.2695 -1.15203,0.475716 -1.7025,0.629496 -1.55573,0.43461 -2.95097,0.452491 -4.05969,0.297011 -1.7571,-0.246405 -3.6258,-1.063008 -4.99483,-2.532199 -0.21676,-0.232619 -0.42898,-0.490177 -0.63257,-0.774791 -0.36266,-0.507001 -0.6825,-1.0827 -0.94537,-1.722071 -0.37226,-0.905412 -0.62268,-1.921266 -0.71725,-2.995907 -0.17679,-2.007122 0.16687,-4.164673 0.94076,-6.374683 0.89661,-2.570367 2.29471,-4.986029 4.14688,-6.998279 1.6811,-1.826426 3.70848,-3.282802 5.90385,-4.247623 0.2337,-0.102707 0.46925,-0.200069 0.7065,-0.291932 2.09787,-0.78665 4.34377,-1.133597 6.65438,-1.138132 2.32676,-0.0046 4.70653,0.339595 7.02636,0.930272 3.59746,0.882136 7.12382,2.319557 10.55173,4.173247 3.23801,1.748495 6.40711,3.875843 9.40983,6.404449 1.98962,1.63169 3.99996,3.531722 5.48536,5.843105 0.21882,0.340473 0.42695,0.692242 0.62189,1.054148 0.42395,0.787068 0.7946,1.643553 1.07239,2.551493 0.37288,1.218745 0.57873,2.531869 0.51591,3.880688 -0.0756,0.824493 -0.28077,1.661837 -0.66396,2.417438 -0.36352,0.716175 -0.87116,1.321993 -1.48063,1.727593 -0.60417,0.400726 -1.26234,0.574779 -1.83686,0.527549 -0.28164,-0.02469 -0.54571,-0.101085 -0.76937,-0.2145 -0.23029,-0.116776 -0.40052,-0.263483 -0.51532,-0.415683 -0.1473,-0.248626 -0.26635,-0.570276 -0.3576,-0.894352 -0.11232,-0.392165 -0.20673,-0.831136 -0.33906,-1.257478 -0.26355,-1.095472 -0.33585,-2.172827 -0.29033,-3.170118 0.0259,-0.567657 0.091,-1.129912 0.19243,-1.68082 0.31706,-1.722632 0.98075,-3.299602 1.88503,-4.61665 1.06118,-1.545552 2.44105,-2.718468 3.82939,-3.534263 2.03303,-1.194618 3.96543,-1.570898 5.24534,-1.624711 0.28393,-0.01194 0,0 0,0 a 0.48782259,0.48782259 90 0 0 0.0437,-0.974666 c 0,0 0.30569,0.03835 0,0 -1.34262,-0.168439 -3.56566,-0.296207 -6.1864,0.562989 -1.80183,0.590719 -3.79036,1.654488 -5.49888,3.426641 -1.46658,1.521202 -2.65203,3.499228 -3.30322,5.802221 -0.20809,0.735932 -0.35997,1.500618 -0.44705,2.284923 -0.15253,1.373787 -0.11628,2.908599 0.23243,4.502744 0.10328,0.603036 0.35658,1.418156 0.86284,2.22718 0.43995,0.704244 1.08447,1.422217 1.98158,1.92341 0.606,0.368849 1.26962,0.58749 1.93366,0.67391 0.64713,0.08422 1.30249,0.04408 1.92167,-0.110109 1.2077,-0.30212 2.21116,-1.014841 2.92046,-1.861355 0.71772,-0.85767 1.147,-1.856127 1.37789,-2.806585 0.24376,-1.00445 0.28156,-2.00261 0.24876,-2.891244 0.006,-1.472694 -0.26101,-2.878594 -0.67301,-4.164645 -0.30742,-0.959624 -0.69916,-1.864093 -1.13136,-2.698397 -0.19896,-0.384082 -0.40977,-0.75862 -0.63,-1.122498 -1.48458,-2.453044 -3.44874,-4.560767 -5.32358,-6.397424 -2.89964,-2.769262 -5.97389,-5.222314 -9.16937,-7.321853 -3.37727,-2.216149 -6.98122,-4.092821 -10.81229,-5.356013 -2.49457,-0.799618 -5.152,-1.345553 -7.84263,-1.469834 -2.67462,-0.123542 -5.42097,0.168229 -8.07295,1.075572 -0.30283,0.100748 -0.6032,0.20944 -0.90085,0.325898 -2.79561,1.093821 -5.35218,2.853368 -7.44943,5.089175 -2.30825,2.460718 -3.98804,5.409605 -5.03223,8.497595 -0.89492,2.655228 -1.31592,5.420787 -1.0306,8.128207 0.15446,1.466227 0.51959,2.869794 1.06073,4.148047 0.3831,0.904941 0.85204,1.742092 1.39454,2.500494 0.30472,0.426002 0.62631,0.816971 0.9595,1.174541 2.08897,2.241804 4.84782,3.413427 7.36575,3.766526 1.60708,0.225366 3.56099,0.189405 5.69143,-0.405759 0.75366,-0.210544 1.53464,-0.494111 2.32146,-0.86468 1.99924,-0.939639 3.78232,-2.297733 5.42532,-3.985888 1.48535,-1.52617 2.78891,-3.250423 4.02207,-5.058423 4.59326,-6.715039 8.10134,-14.024095 11.64694,-21.985443 6.50522,-14.582932 12.27651,-29.2399962 18.36428,-44.501853 3.05294,-7.661056 6.08509,-15.212956 8.89261,-22.900105 1.20876,-3.308892 2.31786,-6.4441 3.69723,-9.457882 1.41064,-3.082106 3.0166,-5.830769 5.06726,-8.182199 1.22417,-1.389201 2.55274,-2.564298 3.90686,-3.532639 0.38112,-0.27254 0.77207,-0.533589 1.17216,-0.782386 2.15354,-1.347477 4.48286,-2.281546 6.84662,-2.563501 1.1752,-0.13986 2.35053,-0.110577 3.46217,0.08763 1.13226,0.201887 2.17294,0.574019 3.08516,1.098215 1.59498,0.937536 2.83602,2.358125 3.67646,3.877612 0.97022,1.752942 1.44314,3.653242 1.66582,5.354946 0.11315,0.840641 0.15803,1.666912 0.14895,2.46754 -0.0161,1.416633 -0.19994,2.744013 -0.47139,3.934479 -0.52549,2.304549 -1.43401,4.349944 -2.50526,6.03109 -1.30919,2.031226 -3.08799,3.927479 -5.38088,5.572662 -0.79394,0.569662 -1.66812,1.122416 -2.62666,1.644316 -1.43524,0.781444 -2.97549,1.453992 -4.58842,2.005741 -3.80875,1.296077 -7.9608,1.931545 -12.22262,1.806227 -4.05275,-0.119171 -8.19084,-0.928722 -12.12202,-2.495191 -4.48295,-1.792824 -8.60596,-4.471759 -13.12152,-7.650178 -9e-5,-6.5e-5 -0.0586,-0.0413 -0.0587,-0.04136 -4.3329,-3.05197 -10.10836,-7.437004 -15.8701,-10.51778 -2.56446,-1.386298 -5.24673,-2.598216 -8.02035,-3.625573 -3.68486,-1.360956 -7.36247,-2.339077 -11.06751,-2.717936 -3.65416,-0.388974 -7.19243,-0.179323 -10.43338,0.496738 0,0 -0.004,9.22e-4 -0.004,9.22e-4 -3.71294,0.77507 -6.96957,2.149777 -9.7132,3.886358 -1.75797,1.254942 -3.41489,2.837378 -4.73035,4.738745 -1.05158,1.409952 -1.95951,3.167689 -2.46224,5.171176 -0.0547,0.2181 -0.10481,0.439881 -0.14971,0.665055 -0.31027,1.556002 -0.36149,3.267282 0.0229,5.005274 0.51615,2.160321 1.72131,4.347575 3.64062,5.96317 1.74143,1.465976 4.02035,2.389587 6.39345,2.433597 0.9547,0.01242 1.88962,-0.11382 2.79663,-0.318928 0.90392,-0.204411 1.78538,-0.488467 2.63045,-0.793789 1.804,-0.651807 3.28293,-1.315715 4.97832,-1.763221 0.77482,-0.204932 1.54991,-0.349446 2.31452,-0.441049 1.01709,-0.121852 2.04101,-0.14096 3.05299,-0.07302 1.28417,0.12316 2.48368,0.413155 3.53905,0.919024 1.07047,0.514123 1.90964,1.213955 2.45174,2.013449 0.46349,0.718445 0.76437,1.575773 0.96695,2.446563 0.18314,0.783121 0.30501,1.627582 0.43444,2.52654 0.004,0.0245 0.0451,0.314606 0.0486,0.339105 0.32832,2.47412 0.26289,4.9538776 -0.24701,7.2726653 -0.51886,2.3607003 -1.53419,4.6744134 -3.07644,6.61836218 -1.49997,1.74384232 -3.48775,3.14205332 -5.75372,4.02336802 -2.20038,0.8558059 -4.65771,1.2193061 -7.10003,0.9105176 -0.61323,-0.011303 -1.2358,-0.072387 -1.82107,-0.2227981 -0.5595,-0.1437911 -1.09328,-0.3713631 -1.54994,-0.7236816 -0.13167,-0.09787 -0.25774,-0.2073464 -0.37725,-0.3280828 -0.20823,-0.2103673 -0.40039,-0.4540164 -0.57095,-0.7290197 -0.25071,-0.4042202 -0.45008,-0.8689633 -0.58183,-1.3732716 -0.24793,-0.949757 -0.25674,-1.99903009 -0.0753,-3.09576421 0.19816,-1.11907809 0.56748,-2.20819209 1.04622,-3.29081559 0.47149,-1.0662313 1.03862,-2.1034146 1.63382,-3.1432692 1.30444,-2.2778438 2.68837,-4.4921873 4.42522,-6.4022683 0.33019,-0.35858 0.66708,-0.696175 1.02387,-0.996445 0.36299,-0.30548 0.73825,-0.565172 1.13605,-0.766188 0.40633,-0.205198 0.83572,-0.341996 1.25625,-0.396847 0.43808,-0.05714 0.85235,-0.02388 1.22425,0.09716 0.44899,0.167668 0.81006,0.463694 1.05965,0.782198 0.0927,0.118144 0.17139,0.240157 0.23733,0.361966 0.15756,0.291043 0.22173,0.59211 0.22942,0.870026 0.0981,0.439335 0.0927,0.881373 0.0386,1.296734 -0.0575,0.441155 -0.1746,0.887001 -0.31521,1.322608 -0.24337,0.648444 -0.52612,1.303513 -0.82901,2.1687124 -0.0409,0.1319574 -0.0835,0.2649911 -0.12783,0.3992285 -0.70759,2.1441048 -1.6435,4.035029 -2.88118,6.5986625 -4.29055,8.4740781 -8.83553,17.7982956 -12.45738,27.4912776 -0.21204,0.710246 -0.39437,1.351173 -0.62502,1.959632 -0.22242,0.586726 -0.47448,1.101715 -0.80722,1.540285 -0.48416,0.690232 -1.23251,1.251753 -2.11325,1.525178 -0.90068,0.27958 -1.91136,0.243143 -2.81081,-0.10927 -0.52351,-0.205124 -1.00033,-0.514165 -1.40017,-0.895884 -0.31606,-0.301727 -0.59532,-0.650818 -0.82143,-1.037671 -0.5065,-0.866541 -0.74014,-1.913781 -0.63336,-2.946751 0.11196,-1.076414 0.58278,-2.10573 1.24168,-2.985458 0.74392,-0.997949 1.69316,-1.797867 2.74039,-2.459644 1.07879,-0.681727 2.26455,-1.217991 3.43159,-1.664602 1.87772,-0.709718 3.796,-1.234809 5.52581,-1.653185 3.75181,-1.028559 7.56112,-1.884204 11.04925,-2.641666 5.76395,-1.251667 10.23086,-2.14103 15.21909,-3.425276 10.50278,-2.7347513 20.19242,-6.5416646 28.84473,-11.23571564 4.13446,-2.23701556 8.50685,-4.97007276 12.42769,-8.35717416 0.23883,-0.2063111 0.47659,-0.4155718 0.71308,-0.6278274 3.61155,-3.2414368 6.6386,-6.9072408 8.82,-11.0997688 1.36144,-2.576575 2.39791,-5.478227 2.97385,-8.606233 0.31579,-1.732819 0.54165,-3.825874 0.3728,-6.015744 -0.0486,-0.629973 -0.13308,-1.290845 -0.26765,-1.971378 -0.40274,-2.036742 -1.27425,-4.292248 -2.85482,-6.287777 -1.41309,-1.784082 -3.37128,-3.306259 -5.71595,-4.131373 -1.14832,-0.404105 -2.39709,-0.630947 -3.65641,-0.614409 -1.26907,0.01667 -2.56325,0.28325 -3.75448,0.870481 -0.80509,0.396877 -1.4958,0.903378 -2.08627,1.430649 -0.61419,0.548455 -1.14355,1.140976 -1.59143,1.690936 -1.18765,1.45833 -2.12968,3.002586 -2.90521,4.447556 -0.49571,0.923605 -0.94361,1.845509 -1.34368,2.70211 -0.30163,0.645826 -0.59377,1.292857 -0.86346,1.893466 -7.69449,17.135681 -13.40996,32.0083399 -19.61206,46.318444 -6.45323,14.88954 -13.40954,29.278748 -20.71296,46.290625 -0.77495,1.805076 -1.64234,3.851656 -2.53061,5.773143 -0.35954,0.777743 -0.73581,1.564663 -1.13089,2.348872 -1.24256,2.466414 -2.70069,4.968126 -4.53652,7.240668 -1.49703,1.853162 -3.28658,3.591266 -5.41245,4.775076 -1.00804,0.561337 -2.09509,0.990435 -3.20727,1.241364 -1.1061,0.249557 -2.21552,0.318198 -3.28512,0.182157 -1.53931,-0.195783 -2.99191,-0.813649 -4.2021,-1.685177 -1.34878,-0.971342 -2.35677,-2.217603 -3.05204,-3.45164 -0.008,-0.01453 -0.0163,-0.02906 -0.0244,-0.04359 -0.73488,-1.317423 -1.18071,-2.724587 -1.40596,-4.096808 -0.24785,-1.509891 -0.23667,-3.020604 -0.0252,-4.435461 0.4397,-2.941132 1.7585,-5.792288 3.70053,-8.246217 1.03354,-1.312077 2.26,-2.543082 3.67319,-3.656275 2.01296,-1.585636 4.31793,-2.849527 6.7737,-3.747718 2.21344,-0.815554 4.5556,-1.328141 6.89345,-1.454649 2.29642,-0.124266 4.57015,0.124784 6.70784,0.809837 2.99632,1.000029 5.80146,2.877098 8.32444,5.248273 0.78518,0.737831 1.54566,1.522533 2.29288,2.350236 1.56348,1.731903 3.02125,3.624916 4.51404,5.680026 1.55845,2.150191 3.33013,4.72054 5.19956,7.02678 4.52026,5.631066 10.19167,10.588778 16.88382,13.874731 6.67996,3.280113 14.32504,4.794782 21.73002,3.758574 0.26575,-0.03892 0.53119,-0.08125 0.79617,-0.127023 2.15639,-0.372492 4.42076,-1.001526 6.64044,-1.977669 2.30454,-1.013458 4.55302,-2.399084 6.53157,-4.236464 1.86822,-1.845765 3.38251,-4.051165 4.35696,-6.480016 1.04352,-2.6004 1.36989,-5.221729 1.1522,-7.576631 -0.144,-2.731359 -1.05664,-5.135484 -2.1961,-7.006611 -1.57629,-2.588457 -3.56224,-4.169971 -5.09469,-5.077867 -0.33518,-0.198576 0,0 0,0 a 0.48867602,0.48867602 90 0 0 -0.52918,0.821696 z"
         id="path8071"
         inkscape:path-effect="#path-effect8073;#path-effect9637"
         inkscape:original-d="m 327.95678,54.932282 c 1.86536,6.13194 7.63992,11.35782 6.46629,11.68681 -1.17363,0.32899 -54.09923,53.264308 -18.71702,17.77383 10.17951,-10.21066 -34.22949,-14.58542 -35.93242,-16.89804 -1.70293,-2.31262 0.51216,-2.28322 -5.10958,-6.93865 -5.62174,-4.65543 -11.83056,-14.33779 -16.86601,-13.96708 -5.03546,0.37072 -10.62713,-3.10794 -15.10716,1.11135 -4.48003,4.21929 -11.11453,3.37827 -11.18902,8.21482 -0.0745,4.83656 -7.11055,16.80083 -2.47612,18.95113 4.63443,2.15031 5.91158,8.58529 8.773,6.19036 2.86142,-2.39492 10.88602,-1.64925 13.71296,-6.92581 2.82694,-5.27657 1.57636,-0.40266 8.48003,-15.83049 6.90368,-15.42783 14.17613,-30.85305 20.71023,-46.28429 6.5341,-15.4312375 17.98836,-43.428299 19.6015,-46.294514 1.61314,-2.866215 3.83464,-7.736152 4.83864,-8.599442 1.00401,-0.863288 1.0406,-2.963783 3.01122,-2.59066 1.97062,0.373123 4.09036,-2.370926 5.86267,-0.163359 1.77232,2.207567 6.90757,7.159727 7.27267,8.920524 0.36509,1.7608 0.45307,5.365876 -0.14808,7.208594 -0.60114,1.84272 4.28515,-0.28943 -2.82207,8.03881 -7.10723,8.32824 -11.54984,15.6097795 -20.97021,19.5287975 -9.42037,3.91902 -19.54022,9.611212 -28.2619,11.756269 -8.72167,2.1450705 -24.32206,5.8285105 -26.16581,6.4343905 -1.84376,0.60589 -3.41691,0.37631 -5.53206,1.81686 -2.11516,1.44055 -5.89852,3.25511 -6.34626,4.32086 -0.44774,1.06576 -4.41852,1.70669 -1.344,3.19648 3.07451,1.48979 8.53112,5.74187 9.22274,4.46857 0.69161,-1.2733 -2.13885,5.24235 2.07404,-3.8207 4.21289,-9.06304 11.5658,-24.7425795 12.63788,-27.18991947 1.07208,-2.44735803 3.04316,-6.47351803 3.21545,-7.34284803 0.17229,-0.86932 1.70071,-1.22427 0.51607,-2.6087595 -1.18463,-1.38449 -1.8219,-5.79438 -2.80213,-5.32871 -0.98024,0.46568 -3.13954,0.25264 -5.09754,2.33259 -1.958,2.07996 -3.54901,4.2915695 -4.47134,6.4771495 -0.92232,2.18558 -3.28668,4.504978 -2.76777,6.55594803 0.51891,2.05097997 0.32987,5.63872197 1.55595,6.15213197 1.22607,0.51341 -1.09582,3.160957 3.67743,1.53945 4.77325,-1.62152 12.77801,0.27374 14.31896,-4.865342 1.54095,-5.139078 5.53119,-13.2985575 4.62206,-15.4180375 -0.90913,-2.11948 -0.21817,-5.6632 -2.72819,-6.35923 -2.51002,-0.69602 -5.53111,-2.48577 -7.29011,-2.32225 -1.75899,0.16352 -1.645,0.48039 -5.51853,0.72314 -3.87353,0.24274 -6.81896,3.62351 -10.22049,2.69416 -3.40152,-0.92935 -6.35783,-5.92256 -8.8367,-7.90088 -2.47886,-1.97831 1.76021,-6.363224 2.63991,-9.545236 0.8797,-3.182014 3.08628,-2.550258 4.62902,-3.825782 1.54275,-1.275525 12.45579,-2.521932 18.68329,-3.783296 6.22749,-1.261364 7.28536,1.706194 10.45805,2.597938 3.17269,0.891741 5.39902,2.318987 7.72357,3.42454 2.32455,1.105554 9.69459,6.577917 15.62421,10.308976 5.92962,3.73106 9.30006,5.57923 13.71113,7.94045 4.41108,2.36122 16.52027,0.3391 26.03966,0.7306 9.5194,0.3915 9.25204,-6.76086 14.07974,-9.98995 4.82771,-3.229097 2.17141,-8.866531 3.53049,-14.4097 1.35907,-5.543171 -3.36351,-7.095294 -7.15967,-11.078228 -3.79615,-3.982934 -9.57241,-0.0044 -15.6586,1.935047 -6.08619,1.939423 -4.74035,3.677397 -5.43284,4.744004 -0.69249,1.066606 -6.06188,12.170338 -9.09322,18.255107 -3.03134,6.08478 -5.91752,15.23005 -8.87667,22.8446695 -2.95915,7.614628 -10.51042,25.4091375 -18.35679,44.4207475 -7.84636,19.01162 -7.69736,16.86491 -11.50327,21.66115 -3.80592,4.79625 -5.83104,5.64012 -8.6704,8.3501 -2.83935,2.70999 -8.80311,-1.35736 -13.06783,-2.05089 -4.26473,-0.69352 -0.92659,-9.24801 -1.8693,-13.90937 -0.94271,-4.66137 8.75359,-9.00227 12.06987,-12.72525 3.31628,-3.72295 9.15896,0.58145 14.79816,0.0932 5.6392,-0.48824 9.19484,4.16852 10.68201,4.76463 1.48717,0.59611 5.54929,6.34242 9.2896,6.86315 20.79392,2.895 7.56326,9.96176 7.72675,13.8562 0.28741,2.88961 -8.60483,2.36768 -6.83429,5.51889 1.39751,2.48729 -1.1801,-2.10054 -1.77054,-3.15121 -0.59045,-1.05067 8.78131,-10.40186 13.03249,-15.60304"
         inkscape:label="zirkel"
         sodipodi:nodetypes="cssssssszssssssssssssssssszssssssssssssssssssssssssssssssssssssssssscssc"
         inkscape:linked-fill="path9122" />
      <path
         style="display:inline;fill-rule:nonzero"
         d="m 348.7858,-9.9648403 c 0,0 0.13107,-0.2650937 0,0 -4.56809,9.23901319 -26.64429,53.8012273 -27.40858,55.4340793 -0.035,0.07469 -0.0436,0.09861 -0.0523,0.118333 a 0.54464378,0.54464378 90 0 1 -0.99622,-0.44056 c 0.009,-0.01972 0.0206,-0.04221 0.0523,-0.118332 0.69372,-1.664065 18.80648,-47.9790414 22.56778,-57.57485 0.10792,-0.275331 0,0 0,0 a 3.1911645,3.1911645 90 0 1 5.83702,2.5813297 z"
         id="path8079"
         inkscape:path-effect="#path-effect8081;#path-effect12064"
         inkscape:original-d="M 345.86729,-11.255505 C 337.8154,6.0528545 328.8792,28.059452 320.82678,45.367292"
         inkscape:label="exclamation"
         sodipodi:nodetypes="cc" />
      <path
         sodipodi:type="star"
         style="fill-opacity:1;fill-rule:evenodd;paint-order:stroke fill markers"
         id="path8217"
         inkscape:flatsided="false"
         sodipodi:sides="5"
         sodipodi:cx="482.80872"
         sodipodi:cy="676.62982"
         sodipodi:r1="36.118893"
         sodipodi:r2="13.36399"
         sodipodi:arg1="2.9659521"
         sodipodi:arg2="3.5942706"
         inkscape:rounded="0"
         inkscape:randomized="0"
         transform="matrix(0.12454982,0.03345141,-0.03345141,0.12454982,280.5941,-47.735388)"
         inkscape:transform-center-x="0.18261408"
         inkscape:transform-center-y="-0.50572224"
         inkscape:label="star"
         inkscape:path-effect="#path-effect14763"
         d="m 463.72656,640.83789 a 4.4421988,4.4421988 0 0 0 -2.27344,4.75391 l 4.35157,22.76953 -20.59571,10.63281 a 4.4421988,4.4421988 0 0 0 1.48243,8.35547 l 22.99804,2.89844 3.75,22.87304 a 4.4421988,4.4421988 0 0 0 8.40235,1.17188 l 9.86328,-20.97852 22.91211,3.50391 a 4.4421988,4.4421988 0 0 0 3.71093,-7.62891 l -16.90234,-15.86133 10.41406,-20.71093 a 4.4421988,4.4421988 0 0 0 -6.10937,-5.88867 l -20.31055,11.17382 -16.47851,-16.30273 a 4.4421988,4.4421988 0 0 0 -5.21485,-0.76172 z" />
    </g>
    <rect
       style="display:inline;fill:#008c1e;fill-opacity:1"
       id="rect6012"
       width="151.36"
       height="215.19618"
       x="29.320076"
       y="40.901909"
       ry="0"
       inkscape:label="Fond"
       inkscape:export-filename="/home/rno/SociétéDuJeu/newlejeufat-peach-2.png"
       inkscape:export-xdpi="144.92"
       inkscape:export-ydpi="144.92" />
    <use
       x="0"
       y="0"
       xlink:href="#g5202"
       id="use1119"
       width="100%"
       height="100%"
       inkscape:label="CloneTracedZirkelUnderBar"
       style="display:inline;fill:#fff8e5;fill-opacity:1" />
    <rect
       style="display:inline;fill:#1f1902;fill-opacity:1;stroke-width:1.01653"
       id="rect6015"
       width="274.92099"
       height="77.128769"
       x="40.263638"
       y="0.053364236"
       ry="0"
       inkscape:label="BarreGoldée"
       transform="rotate(42.477737)"
       inkscape:export-filename="/home/rno/SociétéDuJeu/newlejeufat-peach-2.png"
       inkscape:export-xdpi="144.92"
       inkscape:export-ydpi="144.92" />
    <rect
       style="display:inline;fill:#1f1902;fill-opacity:1;stroke-width:0.942985"
       id="rect6015-3"
       width="255.0307"
       height="71.548569"
       x="50.208786"
       y="2.8434644"
       ry="0"
       inkscape:label="Barre"
       transform="rotate(42.477737)"
       inkscape:export-filename="/home/rno/SociétéDuJeu/newlejeufat-peach-2.png"
       inkscape:export-xdpi="144.92"
       inkscape:export-ydpi="144.92" />
    <use
       x="0"
       y="0"
       xlink:href="#g5202"
       id="use4638"
       width="100%"
       height="100%"
       inkscape:label="CloneTracedZirkelOverBarre"
       clip-path="url(#clipPath1112)"
       style="display:inline;fill:#fff8e5;fill-opacity:1" />
    <rect
       style="fill:#1f1902;fill-opacity:1;fill-rule:evenodd;stroke-width:1;paint-order:stroke fill markers"
       id="rect23489"
       width="47.988441"
       height="39.435776"
       x="259.14865"
       y="72.89743" />
  </g>
  <g
     id="layer2"
     inkscape:label="Layer source du blason simple"
     style="display:none"
     transform="translate(263.50587)">
    <rect
       style="display:inline;fill:none;fill-opacity:1;stroke:#000000;stroke-width:0.202147;stroke-opacity:1"
       id="rect6611"
       width="126.80979"
       height="161.24673"
       x="41.595104"
       y="71.793594"
       inkscape:label="Cadre"
       ry="0" />
    <path
       style="display:inline;fill:none;stroke:#000000;stroke-width:0.264583px;stroke-linecap:butt;stroke-linejoin:miter;stroke-opacity:1"
       d="M 105,71.793594 V 233.04033"
       id="path6689"
       inkscape:label="Milieu Horizontal"
       sodipodi:nodetypes="cc" />
    <path
       style="display:inline;fill-opacity:1;stroke:#000000;stroke-width:0.264583px;stroke-linecap:butt;stroke-linejoin:miter;stroke-opacity:1"
       d="m 101.80755,71.793594 c 0,0 42.87388,-0.607001 64.34494,-7.361452 C 213.25454,261.23866 110.31284,213.59126 105,249.33138"
       id="path6693"
       sodipodi:nodetypes="ccc"
       inkscape:label="Blason Droite" />
    <use
       x="0"
       y="0"
       xlink:href="#path6693"
       id="use6695"
       width="100%"
       height="100%"
       inkscape:label="Blason Gauche"
       transform="matrix(-1,0,0,1,210,0)"
       style="display:inline" />
  </g>
  <g
     id="layer4"
     inkscape:label="Layer source du blason troué"
     style="display:none"
     transform="translate(263.50587)">
    <g
       id="g1213"
       inkscape:label="Masque de blason troué"
       style="display:inline;opacity:1">
      <rect
         style="display:inline;opacity:1;fill:#000000;fill-opacity:1;fill-rule:evenodd;stroke-width:0.66942;stroke-miterlimit:4;stroke-dasharray:none"
         id="rect1475"
         width="259.54822"
         height="319.08978"
         x="-24.774136"
         y="-11.04489"
         inkscape:label="Cacheur de reste" />
      <use
         x="0"
         y="0"
         xlink:href="#path6693"
         id="use1207"
         width="100%"
         height="100%"
         inkscape:label="Clone de Blason Droite"
         style="display:inline;fill:#ffffff" />
      <use
         x="0"
         y="0"
         xlink:href="#use6695"
         id="use1209"
         width="100%"
         height="100%"
         inkscape:label="Clone de Blason Gauche"
         style="display:inline;fill:#ffffff" />
      <circle
         style="display:inline;opacity:1;fill:#000000;fill-opacity:1;fill-rule:evenodd;stroke:none;stroke-width:0.689;stroke-miterlimit:4;stroke-dasharray:none"
         id="circle1211"
         cx="41.547249"
         cy="94.129135"
         r="19.524176"
         inkscape:label="Petit Trou" />
    </g>
  </g>
  <g
     id="layer3"
     inkscape:label="Layer final"
     style="display:inline"
     inkscape:groupmode="layer"
     sodipodi:insensitive="true">
    <use
       x="0"
       y="0"
       xlink:href="#layer1"
       id="use6697"
       inkscape:label="Clone de Layer source des dessins maské avec blason troué"
       style="display:inline"
       width="100%"
       height="100%"
       clip-path="none"
       mask="url(#mask1483)"
       transform="translate(-263.50624)" />
  </g>
</svg>
